<?xml version="1.0" encoding="utf-8"?>
<!-- Generator: Adobe Illustrator 24.3.0, SVG Export Plug-In . SVG Version: 6.00 Build 0)  -->
<svg version="1.1" id="Layer_1" xmlns="http://www.w3.org/2000/svg" xmlns:xlink="http://www.w3.org/1999/xlink" x="0px" y="0px"
	 viewBox="0 0 850.4 850.4" style="enable-background:new 0 0 850.4 850.4;" xml:space="preserve">
<style type="text/css">
	.st0{fill:#1D1D1B;}
</style>
<path class="st0" d="M429.2,139.4L429.2,139.4c0,16.9-19.4,30.8-36,31.7c-1.1,0-4.9,0-5.9,0v33.8c0,0,5.9,0,7.4,0
	c11.7-0.7,23.9-4.5,34.4-10.8v353H463V132.4h-33.8V139.4z"/>
</svg>
