<?xml version="1.0" encoding="utf-8"?>
<!-- Generator: Adobe Illustrator 24.3.0, SVG Export Plug-In . SVG Version: 6.00 Build 0)  -->
<svg version="1.1" id="Layer_1" xmlns="http://www.w3.org/2000/svg" xmlns:xlink="http://www.w3.org/1999/xlink" x="0px" y="0px"
	 viewBox="0 0 850.4 850.4" style="enable-background:new 0 0 850.4 850.4;" xml:space="preserve">
<style type="text/css">
	.st0{fill:#1D1D1B;}
</style>
<path class="st0" d="M441.6,136.8c-0.7,0-101.2-0.2-101.2-0.2v335.7c0,46.1,38,83.7,84.8,83.7s84.8-37.6,84.8-83.7v-93.8
	c0-19.8-10.1-36.4-24.8-47.9c14.6-11.5,24.8-28.4,24.8-47.9v-81.2C509.8,164.9,474.5,138.3,441.6,136.8z M476,471.8
	c0,27.7-23,49.9-51.1,49.9s-51.1-22.5-51.1-49.9V347.1c0,0,62.3,0,66.1,0c18.5,1.1,35.8,16.2,35.8,31.1L476,471.8z M476,282.6
	c0,15.1-17.5,30.1-36,31c-1.1,0-66.1,0-66.1,0V170.3c0,0,62.3,0,66.1,0c18.5,1.1,35.8,16.2,35.8,31.1L476,282.6z"/>
</svg>
