<?xml version="1.0" encoding="utf-8"?>
<!-- Generator: Adobe Illustrator 24.3.0, SVG Export Plug-In . SVG Version: 6.00 Build 0)  -->
<svg version="1.1" id="Layer_1" xmlns="http://www.w3.org/2000/svg" xmlns:xlink="http://www.w3.org/1999/xlink" x="0px" y="0px"
	 viewBox="0 0 850.4 850.4" style="enable-background:new 0 0 850.4 850.4;" xml:space="preserve">
<style type="text/css">
	.st0{fill:#1D1D1B;}
</style>
<path class="st0" d="M542.1,449.7c-16.8,47.7-61.8,79.7-112.6,79.7c-65.8,0-119.2-53.4-119.2-119.2S363.7,291,429.5,291
	c46.1,0,88.7,27.1,108.2,69.1l30-13.9c-24.9-53.6-79-88.3-138.2-88.3c-83.9,0-152.3,68.2-152.3,152.3s68.2,152.3,152.3,152.3
	c64.7,0,122.5-41.1,143.7-102L542.1,449.7z"/>
</svg>
