<?xml version="1.0" encoding="utf-8"?>
<!-- Generator: Adobe Illustrator 24.3.0, SVG Export Plug-In . SVG Version: 6.00 Build 0)  -->
<svg version="1.1" id="Layer_1" xmlns="http://www.w3.org/2000/svg" xmlns:xlink="http://www.w3.org/1999/xlink" x="0px" y="0px"
	 viewBox="0 0 850.4 850.4" style="enable-background:new 0 0 850.4 850.4;" xml:space="preserve">
<style type="text/css">
	.st0{fill:#1D1D1B;}
</style>
<path class="st0" d="M438.2,499.1c-2.7,34.6-31.7,61.9-67.1,61.9v33.8h85.5c-1.1,3.8-1.8,8.1-1.8,12.4v12.2
	c0,25.4,20.7,46.1,46.1,46.1c4.3,0,8.3-0.7,12.4-1.8V674c0,8.5-5.6,15.5-12.4,15.5s-12.4-7.2-12.4-15.5h-33.8
	c0,27.2,20.7,49.3,46.1,49.3c25.4,0,46.1-22,46.1-49.3v-70c0,0-0.9-6.3-1.8-9.5h3.6V178.3h-33.8v287.1h-61.9
	c11.5-14.6,18.7-33.1,18.9-53.1l0,0V287.9c0-32.4-26.5-58.9-58.9-58.9s-59,26.6-59,58.9v99h33.8v-99c0-13.9,11.2-25.2,25.2-25.2
	c13.9,0,25.2,11.2,25.2,25.2v122.8c0,30.1-24.5,54.7-54.7,54.7h-82.4v33.8L438.2,499.1L438.2,499.1z M501,631.7
	c-6.8,0-12.4-5.6-12.4-12.4v-12.2c0-6.8,5.6-12.4,12.4-12.4s12.4,5.6,12.4,12.4v12.2C513.4,626,507.8,631.7,501,631.7z M515.2,561
	h-68.9c14.9-16.6,24.3-38.2,25.6-61.9h43.2V561z"/>
</svg>
