<?xml version="1.0" encoding="utf-8"?>
<!-- Generator: Adobe Illustrator 24.3.0, SVG Export Plug-In . SVG Version: 6.00 Build 0)  -->
<svg version="1.1" id="Layer_1" xmlns="http://www.w3.org/2000/svg" xmlns:xlink="http://www.w3.org/1999/xlink" x="0px" y="0px"
	 viewBox="0 0 850.4 850.4" style="enable-background:new 0 0 850.4 850.4;" xml:space="preserve">
<style type="text/css">
	.st0{fill:#1D1D1B;}
</style>
<path class="st0" d="M566.8,347c-0.9-34.2-23.9-58.9-55.1-58.9h-26.1v-63.5c0-31.5-26.6-57.4-59-57.4s-58.9,25.8-58.9,57.4v63.5h-29
	c-30.1,0-52.4,23-54.9,55.4L283.6,493c0,31.5,26.6,57.4,58.9,57.4c16.4,0,31.3-6.6,42.1-17.3c10.8,10.7,25.6,17.3,42.1,17.3
	c32.4,0,59-25.8,59-57.4V321.1h26.1c15.8,0,21.4,15.1,21.4,28.2v197.7h33.8V347L566.8,347z M401.7,224.6c0-13.6,11.2-24.5,25.2-24.5
	c14,0,25.2,10.9,25.2,24.5v63.5h-50.4V224.6z M342.7,517.3c-14,0-25.2-10.9-25.2-24.5V349.2c0-12.9,5.6-28.2,21.4-28.2h29v171.9
	C367.9,506.4,356.5,517.3,342.7,517.3z M452.1,492.8c0,13.6-11.2,24.5-25.2,24.5c-13.9,0-25.2-10.9-25.2-24.5V320.9h50.4V492.8z"/>
</svg>
