<?xml version="1.0" encoding="utf-8"?>
<!-- Generator: Adobe Illustrator 24.3.0, SVG Export Plug-In . SVG Version: 6.00 Build 0)  -->
<svg version="1.1" id="Layer_1" xmlns="http://www.w3.org/2000/svg" xmlns:xlink="http://www.w3.org/1999/xlink" x="0px" y="0px"
	 viewBox="0 0 850.4 850.4" style="enable-background:new 0 0 850.4 850.4;" xml:space="preserve">
<style type="text/css">
	.st0{fill:#1D1D1B;}
</style>
<path class="st0" d="M509.1,167.2c-28.8,0-54.9,12-73.1,31.4c-9.9-18.2-29.5-30.7-52-30.7c-32.4,0-58.9,26.2-58.9,58.3v64.5h-29
	c-30.1,0-52.4,23.4-54.9,56l-0.2,151.9c0,32,26.6,58.3,58.9,58.3c16.4,0,31.3-6.7,42.1-17.6c10.8,10.9,25.6,17.6,42.1,17.6
	c16.9,0,32.2-7.1,42.8-18.2c11,10.7,26.1,17.1,43,17.1c33.3,0,60.5-26.2,60.5-58.3V346.9H530c-2.5-32.9-26.6-56-59.2-56H443v-32.5
	c4-32.5,32.2-57.6,66.1-57.6c36.7,0,66.6,29.6,66.6,65.8v59.8c0,13.1-5.6,28.7-21.4,28.7h-17.8v33.4l0,0h17.8l0,0
	c15.8,0,21.4,15.3,21.4,28.7v132.1h33.8V416.7c0-18.5-6.1-34.2-16.4-45.4c10.4-11.1,16.4-26.9,16.4-45.4v-59.8
	C609.5,211.7,564.5,167.2,509.1,167.2z M358.8,226.3c0-13.8,11.2-24.9,25.2-24.9c14,0,25.2,11.1,25.2,24.9l-0.5,64.5h-49.9V226.3z
	 M299.9,523.5c-13.9,0-25.2-11.1-25.2-24.9V352.4c0-13.1,5.6-28.7,21.4-28.7h29v174.8C325.1,512.4,313.8,523.5,299.9,523.5z
	 M409.2,498.6c0,13.8-11.2,24.9-25.2,24.9c-13.9,0-25.2-11.1-25.2-24.9V323.8h50.4V498.6z M471.1,324c18.9,0,25.6,14.9,25.6,28.7
	v144.8c0,13.8-11.9,24.9-26.8,24.9s-26.8-11.1-26.8-24.9V324L471.1,324z"/>
</svg>
