<?xml version="1.0" encoding="utf-8"?>
<!-- Generator: Adobe Illustrator 24.3.0, SVG Export Plug-In . SVG Version: 6.00 Build 0)  -->
<svg version="1.1" id="Layer_1" xmlns="http://www.w3.org/2000/svg" xmlns:xlink="http://www.w3.org/1999/xlink" x="0px" y="0px"
	 viewBox="0 0 850.4 850.4" style="enable-background:new 0 0 850.4 850.4;" xml:space="preserve">
<style type="text/css">
	.st0{fill:#1D1D1B;}
</style>
<g>
	<path class="st0" d="M549.8,344.5c0-40.7-27.9-70.4-66.4-70.6l0,0H483h-6.8v-52.4c0-28.8-23.4-52.4-52.4-52.4
		c-28.8,0-52.4,23.4-52.4,52.4v52.4h-22.1c-27,0-46.8,20.9-48.8,50.6l-0.2,127.6c0,28.8,23.4,52.4,52.4,52.4
		c13.7,0,26.1-5.2,35.6-14c9.2,8.6,21.8,14,35.6,14c28.8,0,52.4-23.4,52.4-52.4V307.9h6.8c24.3,0,33.1,20,33.1,36.9l0.2,153.4h33.8
		L549.8,344.5z M405.2,221.2c0-10.4,8.3-18.7,18.7-18.7s18.7,8.3,18.7,18.7v52.4h-37.1L405.2,221.2z M353,470.5
		c-10.4,0-18.7-8.3-18.7-18.7V329.2c0-3.6,0.7-21.8,15.3-21.8h22v144.5C371.4,462.2,363.1,470.5,353,470.5z M423.6,470.5
		c-10.4,0-18.7-8.3-18.7-18.7V307.4h37.1v132.5C442.1,439.9,443.6,470.5,423.6,470.5z"/>
	<path class="st0" d="M516.1,642.2c0,7.6-6.8,13.7-15.3,13.7c-8.3,0-15.3-6.1-15.3-13.7v-77.4l0,0c0-11.9-4.5-23-13.1-31.7
		c-9.2-9.5-22.1-14.9-35.6-14.9c-12.1,0-23.4,4.3-31.9,11.5c-8.8-7.4-20.2-11.5-31.9-11.5c-27,0-49.1,21.4-49.1,47.5v117.9h33.8
		V565.7c0-7.6,6.8-13.7,15.3-13.7c4.3,0,8.5,1.6,11.2,4.5c1.6,1.8,3.6,4.5,3.4,8.6v118.6l0,0h33.8l0,0V565.7
		c0-7.6,6.8-13.7,15.3-13.7c4.3,0,8.6,1.6,11.2,4.5c1.6,1.6,3.6,4.5,3.4,8.3V642c0,26.1,22.1,47.5,49,47.5c27,0,49-21.4,49-47.5
		V526.6h-33.8L516.1,642.2z"/>
</g>
</svg>
