<?xml version="1.0" encoding="utf-8"?>
<!-- Generator: Adobe Illustrator 24.3.0, SVG Export Plug-In . SVG Version: 6.00 Build 0)  -->
<svg version="1.1" id="Layer_1" xmlns="http://www.w3.org/2000/svg" xmlns:xlink="http://www.w3.org/1999/xlink" x="0px" y="0px"
	 viewBox="0 0 850.4 850.4" style="enable-background:new 0 0 850.4 850.4;" xml:space="preserve">
<style type="text/css">
	.st0{fill:#1D1D1B;}
</style>
<path class="st0" d="M534.2,178.5v335.6h-58.9V266c0-53.6-43.2-97.2-96.3-97.2s-96.3,43.6-96.3,97.2l-0.2,226.2
	c0,31.4,26.3,56.9,58.7,56.9c32.2,0,58.5-25.3,58.7-56.4l0,0V492V328.2l0,0c-0.9-30.7-27-55.4-58.7-55.4c-8.8,0-17.3,2-24.8,5.2
	v-12.4c0-35.5,28.1-64.5,62.5-64.5s62.6,29,62.6,64.5v280.7H568V178.5H534.2z M341.2,305.7c13.7,0,25,10.9,25,24.4v162.2
	c0,13.3-11.2,24.2-25,24.2s-25-10.9-25-24.2l0.2-165.4C318,315.1,328.3,305.7,341.2,305.7z"/>
</svg>
