<?xml version="1.0" encoding="utf-8"?>
<!-- Generator: Adobe Illustrator 24.3.0, SVG Export Plug-In . SVG Version: 6.00 Build 0)  -->
<svg version="1.1" id="Layer_1" xmlns="http://www.w3.org/2000/svg" xmlns:xlink="http://www.w3.org/1999/xlink" x="0px" y="0px"
	 viewBox="0 0 850.4 850.4" style="enable-background:new 0 0 850.4 850.4;" xml:space="preserve">
<style type="text/css">
	.st0{fill:#1D1D1B;}
</style>
<path class="st0" d="M568.1,545.7V179h-33.8v334.6h-58.9V270.6c0-52.5-43.2-95.2-96.3-95.2s-96.3,42.7-96.3,95.2l-0.5,221.3
	c0,30.7,26.3,55.7,58.7,55.7c32.2,0,58.5-24.8,58.7-55.3l0,0l0,0V332.1c-0.9-30.1-27-54.2-58.7-54.2c-8.8,0-17.3,1.9-24.8,5.3V271
	c0-34.8,28.1-63.2,62.5-63.2s62.6,28.4,62.6,63.2v274.7h31.1c-3.4,6.8-2,21.8-2,21.8c0,24.1,20.7,43.7,46.1,43.7
	c4.3,0,8.3-0.6,12.4-1.7v9c0,7.5-5.6,13.7-12.4,13.7s-12.4-6.2-12.4-13.7h-33.8c0,25.2,20.7,45.7,46.1,45.7
	c25.4,0,46.1-20.5,46.1-45.7l-0.2-64.2c-0.2-3-0.9-5.8-1.8-8.5L568.1,545.7L568.1,545.7z M341.3,309.7c13.7,0,25,10.7,25,23.9v158.6
	c0,13-11.2,23.7-25,23.7s-25-10.7-25-23.7l0.2-162C318.1,318.6,328.4,309.7,341.3,309.7z M516.8,579c-6.7,0-12.4-5.3-12.4-11.7v-9.2
	c0-6.4,5.6-11.7,12.4-11.7c6.8,0,12.4,5.3,12.4,11.7v9.2C529.1,573.6,523.5,579,516.8,579z"/>
</svg>
