<?xml version="1.0" encoding="utf-8"?>
<!-- Generator: Adobe Illustrator 24.3.0, SVG Export Plug-In . SVG Version: 6.00 Build 0)  -->
<svg version="1.1" id="Layer_1" xmlns="http://www.w3.org/2000/svg" xmlns:xlink="http://www.w3.org/1999/xlink" x="0px" y="0px"
	 viewBox="0 0 850.4 850.4" style="enable-background:new 0 0 850.4 850.4;" xml:space="preserve">
<style type="text/css">
	.st0{fill:#1D1D1B;}
</style>
<path class="st0" d="M568.9,178.2v336.9H430.7v-50l90.5-0.2V230.3h-0.2c-0.7-32.6-28.1-58.9-61.9-58.9s-61.4,26.3-61.9,58.9l0,0
	v202.5h-31.5v-94.1c0-31.3-26.5-56.9-58.9-56.9s-58.9,25.6-58.9,56.9v126.6h33.8V338.7c0-13.5,11.2-24.3,25.2-24.3
	s25.2,10.9,25.2,24.3v126.6l65,0.2v82.5h205.7V178.4L568.9,178.2L568.9,178.2z M430.7,227.8c0-15.2,12.6-27.7,28.4-27.7
	s28.4,12.3,28.4,27.7l0.2,203.6h-56.9V227.8z"/>
</svg>
