<?xml version="1.0" encoding="utf-8"?>
<!-- Generator: Adobe Illustrator 24.3.0, SVG Export Plug-In . SVG Version: 6.00 Build 0)  -->
<svg version="1.1" id="Layer_1" xmlns="http://www.w3.org/2000/svg" xmlns:xlink="http://www.w3.org/1999/xlink" x="0px" y="0px"
	 viewBox="0 0 850.4 850.4" style="enable-background:new 0 0 850.4 850.4;" xml:space="preserve">
<style type="text/css">
	.st0{fill:#1D1D1B;}
</style>
<path class="st0" d="M602.6,547.7V179.9h-33.8V515H430.7v-49.8l90.5-0.2l-0.2-233.9c-0.7-32.5-28.1-58.6-61.9-58.6
	s-61.4,26.2-61.9,58.6l0,0v201.7h-31.5v-93.9c0-31.2-26.6-56.7-58.9-56.7s-58.9,25.5-58.9,56.7v126.2h33.7V338.9
	c0-13.4,11.2-24.2,25.2-24.2c13.9,0,25.2,10.8,25.2,24.2v126.2l65.2,0.2v82.2h110.7c-0.7,12.1-0.5,17.7-0.5,17.7
	c0.7,25.5,21.1,46.1,46.1,46.1c4.3,0,8.3-0.6,12.4-1.7v10c0,8.2-5.6,14.9-12.4,14.9s-12.4-6.9-12.4-14.9h-33.8
	c0,26.2,20.7,47.4,46.1,47.4c25.4,0,46.1-21.2,46.1-47.4c0,0-0.2-70.3-0.2-71.8H602.6L602.6,547.7z M430.7,232.4
	c0-14.9,12.6-27.3,28.4-27.3s28.4,12.1,28.4,27.3l0.2,200.6h-56.7L430.7,232.4z M553.1,578.9c-6.8,0-12.4-6.9-12.4-14.9v-8.9
	c0-2.6,0.5-5,1.6-7.4c0,0,20.5,0,22.5,0.2c0.2,1.1,0.7,3.5,0.7,7.1v8.9C565.5,572,559.9,578.9,553.1,578.9z"/>
</svg>
