<?xml version="1.0" encoding="utf-8"?>
<!-- Generator: Adobe Illustrator 24.3.0, SVG Export Plug-In . SVG Version: 6.00 Build 0)  -->
<svg version="1.1" id="Layer_1" xmlns="http://www.w3.org/2000/svg" xmlns:xlink="http://www.w3.org/1999/xlink" x="0px" y="0px"
	 viewBox="0 0 850.4 850.4" style="enable-background:new 0 0 850.4 850.4;" xml:space="preserve">
<style type="text/css">
	.st0{fill:#1D1D1B;}
</style>
<g>
	<path class="st0" d="M516.7,486V181.6h-33.8V452H309.4v-63.9h112.3v-144h-0.2c-2-38.2-34-68.6-72.9-68.6c-40,0-72.9,32.6-72.9,72.7
		v0.2v237.4l199.8,0.2H516.7z M309.4,248.2c0-21.4,17.6-38.9,39.1-38.9c21.6,0,39.1,17.3,39.1,38.9v106.2h-78.3V248.2z"/>
	<path class="st0" d="M574.5,601.4c0,0,1.8-43.4-45.9-43.4c-4,0-8.1,0.7-11.9,1.6v-59.2h-33.8c0,30.1,0,97.4,0,97.6
		c-0.2,0.9-0.2,2-0.2,2.9c-1.4,6.3-6.8,11-13.1,11c-7.4,0-13.5-6.3-13.5-14l0.5-38.9c0-35.3-29.9-64.1-66.8-64.1
		s-66.8,28.8-66.8,64.1v42.8c0,24.3,19.6,43.9,43.9,43.9s43.9-19.6,43.9-43.9v-12.4c0-24.3-19.6-43.9-43.9-43.9
		c-2.5,0-4.7,0.2-7,0.7c5.4-10.4,16.6-17.3,29.9-17.3c17.1,0,31.3,12.2,32.9,27.5h-0.2v41.9c0,26.3,21.1,47.7,47.2,47.7
		c8.6,0,16.6-2.5,23.6-6.5c8.5,10.1,21.2,16.6,35.3,16.6c4.3,0,8.3-0.7,12.4-1.8v9.5c0,7.9-5.6,14.4-12.4,14.4s-12.4-6.5-12.4-14.4
		h-33.7c0,26.5,20.7,48.1,46.1,48.1c25.4,0,46.1-21.6,46.1-48.1L574.5,601.4z M366.6,578.9c5.6,0,10.1,4.5,10.1,10.1v12.4
		c0,5.6-4.5,10.1-10.1,10.1s-10.1-4.5-10.1-10.1v-12.4C356.5,583.4,361,578.9,366.6,578.9z M540.5,609.3c0.2,7-5.2,12.4-12.1,12.4
		c-6.8,0-12.4-5.6-12.4-12.4c0,0,0.2-7,0.2-7.9c1.4-5.4,6.1-9.7,11.9-9.7c6.8,0,12.4,5.6,12.4,12.4V609.3z"/>
</g>
</svg>
