<?xml version="1.0" encoding="utf-8"?>
<!-- Generator: Adobe Illustrator 24.3.0, SVG Export Plug-In . SVG Version: 6.00 Build 0)  -->
<svg version="1.1" id="Layer_1" xmlns="http://www.w3.org/2000/svg" xmlns:xlink="http://www.w3.org/1999/xlink" x="0px" y="0px"
	 viewBox="0 0 850.4 850.4" style="enable-background:new 0 0 850.4 850.4;" xml:space="preserve">
<style type="text/css">
	.st0{fill:#1D1D1B;}
</style>
<g>
	<path class="st0" d="M531.6,561.2c0,0-14,0.7-17.8,1.6v-62.1h-33.8v97.2c0,7.6-6.1,14-13.5,14c-7.4,0-13.5-6.3-13.5-14l0.5-38.9
		c0-35.3-29.9-64.1-66.8-64.1s-66.8,28.8-66.8,64.1v42.8c0,24.3,19.6,43.9,43.9,43.9s43.9-19.6,43.9-43.9v-12.4
		c0-24.3-19.6-43.9-43.9-43.9c-2.5,0-4.7,0.2-7,0.7c5.4-10.3,16.6-17.3,29.9-17.3c17.1,0,31.3,12.1,32.9,27.4h-0.2v41.9
		c0,26.3,21.1,47.7,47.2,47.7c4.5,0,8.8-0.7,12.8-1.8v18.9c0,25.4,20.7,46.1,46.1,46.1h5.9c25.4,0,46.1-20.7,46.1-46.1v-55.6
		C577.7,581.9,557,561.2,531.6,561.2z M363.8,578.9c5.6,0,10.1,4.5,10.1,10.1v12.4c0,5.6-4.5,10.1-10.1,10.1s-10.1-4.5-10.1-10.1
		v-11.9v-0.5C353.6,583.4,358.1,578.9,363.8,578.9z M544,662.2c0,6.8-5.6,12.4-12.4,12.4h-5.9c-6.8,0-12.4-5.6-12.4-12.4v-54.9
		c0-6.8,5.6-12.4,12.4-12.4h5.9c6.8,0,12.4,5.6,12.4,12.4V662.2z"/>
	<path class="st0" d="M513.8,486V181.6h-33.8V452H306.6v-63.9h112.3v-144h-0.2c-2-38.2-34-68.6-72.9-68.6
		c-40.3,0-72.9,32.6-72.9,72.7v0.2v237.4l199.8,0.2H513.8z M306.4,248h0.2c0-21.4,17.6-38.9,39.1-38.9s39.1,17.3,39.1,38.9v106.2
		h-78.5L306.4,248L306.4,248z"/>
</g>
</svg>
