<?xml version="1.0" encoding="utf-8"?>
<!-- Generator: Adobe Illustrator 24.3.0, SVG Export Plug-In . SVG Version: 6.00 Build 0)  -->
<svg version="1.1" id="Layer_1" xmlns="http://www.w3.org/2000/svg" xmlns:xlink="http://www.w3.org/1999/xlink" x="0px" y="0px"
	 viewBox="0 0 850.4 850.4" style="enable-background:new 0 0 850.4 850.4;" xml:space="preserve">
<style type="text/css">
	.st0{fill:#1D1D1B;}
</style>
<path class="st0" d="M483.2,172.6c-23.9,0-45.2,9.2-59.2,23.6c-13.7-14.4-34.4-23.6-57.6-23.6c-40.5,0-73.6,28-74.2,62.8l0,0v95.8
	H326v-94.9l0,0c0-17.1,18.2-30.8,40.5-30.8s40.5,13.8,40.5,30.8v39.1c0,30.4-19.4,57.3-49.5,68.4l0,0
	c-39.1,16.8-64.6,52.9-65.9,93.6l0,0v113.1H463c-1.6,10.7-0.5,17.7-0.5,17.7l0,0c0.7,25.8,21.1,46.6,46.1,46.6
	c4.3,0,8.3-0.7,12.4-1.7v10.1c0,8.3-5.6,15.1-12.4,15.1c-6.8,0-12.4-7-12.4-15.1h-33.8c0,26.5,20.7,47.9,46.1,47.9
	c25.4,0,46.1-21.4,46.1-47.9c0,0-0.2-71.1-0.2-72.6h4.3V373.4h-33.8v144.3h-84.4c0,0,0-75.2,0-77c0-29.3,19.1-56,48.6-67.6l0,0
	c41.4-16.4,68.2-52.9,69.3-94.7l0,0v-42.2C558.8,201.2,524.9,172.6,483.2,172.6z M521.3,550.7c1.1,16.4,1.1,31.3-12.6,31.3
	c-6.8,0-12.4-7-12.4-15.1c0,0-1.1-6.3,0.9-16.2C497.2,550.7,519.9,550.7,521.3,550.7z M474.2,343.8L474.2,343.8
	c-40.1,16.8-65.9,53.1-67.3,93.6l0,0v80.3h-81.7c0,0,0-75.2,0-76.8c0-29.5,18.7-56,47.5-67.6l0,0c40.5-16.4,66.6-52.9,67.9-94.7l0,0
	v-42.4c0-16.8,19.4-30.8,42.5-30.8s41.8,13.8,41.8,30.8v39.1C525.1,305.8,505.1,332.7,474.2,343.8z"/>
</svg>
