<?xml version="1.0" encoding="utf-8"?>
<!-- Generator: Adobe Illustrator 24.3.0, SVG Export Plug-In . SVG Version: 6.00 Build 0)  -->
<svg version="1.1" id="Layer_1" xmlns="http://www.w3.org/2000/svg" xmlns:xlink="http://www.w3.org/1999/xlink" x="0px" y="0px"
	 viewBox="0 0 850.4 850.4" style="enable-background:new 0 0 850.4 850.4;" xml:space="preserve">
<style type="text/css">
	.st0{fill:#1D1D1B;}
</style>
<path class="st0" d="M607.2,174.8v305.5H546V240.8h-0.2c-2-38.2-34-68.6-72.9-68.6c-22.5,0-42.8,10.1-56,26.3
	c-13.5-16-33.5-26.3-56-26.3c-39.6,0-71.8,31.5-72.9,70.6l0,0V513l0,0v0.9h33.8V244.6c0-21.4,17.5-38.9,39.1-38.9
	c21.6,0,38.9,17.1,39.1,38.5v0.4v268.2l0,0v0.9h33.8V244.8v-0.4c0.2-21.2,17.8-38.5,39.1-38.5c21.6,0,39.1,17.3,39.1,38.9v269.1
	h94.5c-3.2,27.2-26.3,48.4-54.2,48.4H297.8c-30.1,0-54.7-24.5-54.7-54.7V174.8h-33.8v333c0,46.6,36,84.6,81.7,88v0.2h252.7
	c-0.7,2.9-0.9,6.1-0.9,9.2v55.1c0,25.4,20.7,46.1,46.1,46.1h5.9c25.4,0,46.1-20.7,46.1-46.1v-54.9c0-16.6-8.8-31-22-39.4
	c12.4-14.2,20.5-32.2,21.8-52h0.2V174.8H607.2z M607.2,660.4c0,6.8-5.6,12.4-12.4,12.4H589c-6.8,0-12.4-5.6-12.4-12.4v-54.9
	c0-6.8,5.6-12.4,12.4-12.4h5.9c6.8,0,12.4,5.6,12.4,12.4V660.4z"/>
</svg>
