<?xml version="1.0" encoding="utf-8"?>
<!-- Generator: Adobe Illustrator 24.3.0, SVG Export Plug-In . SVG Version: 6.00 Build 0)  -->
<svg version="1.1" id="Layer_1" xmlns="http://www.w3.org/2000/svg" xmlns:xlink="http://www.w3.org/1999/xlink" x="0px" y="0px"
	 viewBox="0 0 850.4 850.4" style="enable-background:new 0 0 850.4 850.4;" xml:space="preserve">
<style type="text/css">
	.st0{fill:#1D1D1B;}
</style>
<path class="st0" d="M584.4,177h-33.8v337.6h-58V235.4c0.4-16.7-5.2-63.3-64.8-63.3c-19.1,0-36.4,8-48.4,20.6
	c-0.4-0.7-14.4-20.6-48.1-20.6c-36.2,0-65.5,28.4-65.5,63.3v311.8h33.8V235.3c0-16.9,14.2-30.7,31.7-30.7
	c24.5,0,31.3,22.3,31.1,30.3v312.1h33.8V235.3c0-16.9,14.2-30.7,31.7-30.7c25.9,0,31.3,22.3,31.1,30.3v312.4h33.3
	c-1.4,4.1-2,8.5-2,13v50.9c0,24.5,20.7,44.4,46.1,44.4c25.4,0,46.1-19.9,46.1-44.4v-50.9c0-4.5-0.7-8.9-2-13h4L584.4,177L584.4,177z
	 M548.6,611c0,6.5-5.6,11.9-12.4,11.9s-12.3-5.5-12.3-11.9V560c0-6.5,5.6-11.9,12.4-11.9s12.4,5.4,12.4,11.9V611H548.6z"/>
</svg>
