<?xml version="1.0" encoding="utf-8"?>
<!-- Generator: Adobe Illustrator 24.3.0, SVG Export Plug-In . SVG Version: 6.00 Build 0)  -->
<svg version="1.1" id="Layer_1" xmlns="http://www.w3.org/2000/svg" xmlns:xlink="http://www.w3.org/1999/xlink" x="0px" y="0px"
	 viewBox="0 0 850.4 850.4" style="enable-background:new 0 0 850.4 850.4;" xml:space="preserve">
<style type="text/css">
	.st0{fill:#1D1D1B;}
</style>
<path class="st0" d="M425.5,172.1c-40.5,0-73.6,27.7-74.2,62l0,0v94.7H385v-93.6c0-16.9,18.2-30.5,40.5-30.5
	c22.3,0,40.5,13.6,40.5,30.5V274c0,30.1-19.4,56.6-49.5,67.7l0,0c-39.1,16.6-64.6,52.3-65.9,92.5l0,0v111.8h56.5
	c-1.1,3.2-1.8,6.5-2.2,9.7l0,0v52.5c0,22.5,20.7,40.6,46.1,40.6c25.4,0,46.1-18.2,46.1-40.6l-0.2-52.8c-0.2-3.5-0.9-6.7-1.8-9.7h4.7
	V370.6H466v142.7h-81.7c0,0,0-74.4,0-75.9c0-29.2,18.7-55.3,47.5-66.8l0,0c40.5-16.2,66.6-52.3,68-93.6l0,0v-41.7
	C499.8,200.4,466.5,172.1,425.5,172.1z M463.3,608.4c0,3.9-5.2,8.2-12.4,8.2c-7.2,0-12.4-4.3-12.4-8.2V558c0-5.8,7.9-8.4,12.4-8.4
	c7.2,0,12.4,4.3,12.4,8.2V608.4z"/>
</svg>
