<?xml version="1.0" encoding="utf-8"?>
<!-- Generator: Adobe Illustrator 24.3.0, SVG Export Plug-In . SVG Version: 6.00 Build 0)  -->
<svg version="1.1" id="Layer_1" xmlns="http://www.w3.org/2000/svg" xmlns:xlink="http://www.w3.org/1999/xlink" x="0px" y="0px"
	 viewBox="0 0 850.4 850.4" style="enable-background:new 0 0 850.4 850.4;" xml:space="preserve">
<style type="text/css">
	.st0{fill:#1D1D1B;}
</style>
<path class="st0" d="M425.9,112.5c-73.1,0-132.8,58.9-132.8,131.4v243.2c0,65,42.1,117.7,93.8,117.7h10.8
	c51.8,0,93.8-52.9,93.8-117.7v-69.3c0-18.7-6.1-34.6-16.4-45.9c10.3-11.2,16.4-27.2,16.4-45.9v-85.3c0-36.2-29.5-65.5-65.5-65.5
	c-36.5,0-66.1,29.5-66.1,65.5v257h33.8V240.3c0-17.6,14.6-31.7,32.4-31.7c17.5,0,31.7,14.2,31.7,31.7v85.3c0,13.3-5.6,29-21.4,29
	h-17.8v33.8h17.8c15.8,0,21.4,15.5,21.4,29v69.3c0,46.4-27,83.9-60.1,83.9h-10.8c-33.1,0-60.1-37.6-60.1-83.9V243.5
	c0-53.8,44.3-97.6,99-97.6c53.8,0,97.7,43.9,97.7,97.6v112.7h33.8V243.5C557.3,171.5,498.3,112.5,425.9,112.5z"/>
</svg>
