<?xml version="1.0" encoding="utf-8"?>
<!-- Generator: Adobe Illustrator 24.3.0, SVG Export Plug-In . SVG Version: 6.00 Build 0)  -->
<svg version="1.1" id="Layer_1" xmlns="http://www.w3.org/2000/svg" xmlns:xlink="http://www.w3.org/1999/xlink" x="0px" y="0px"
	 viewBox="0 0 850.4 850.4" style="enable-background:new 0 0 850.4 850.4;" xml:space="preserve">
<style type="text/css">
	.st0{fill:#1D1D1B;}
</style>
<path class="st0" d="M559.6,303.2c0-44.6-33.1-81.7-75.8-88v-71.8h-33.8v73.3c-17.3,4.3-32.6,13.5-44.6,26.1
	c-11.2-17.1-30.6-28.6-52.6-28.6c-34.6,0-62.8,28.1-62.8,62.8v270.4h33.8V277.1c0-16,13.1-29,29-29s29,13.1,29,29v270.7h33.8V303.2
	c0-23,14.2-42.8,34.4-51.1v242.6c0,30.4,24.8,55.1,55.1,55.1c30.4,0,55.1-24.8,55.1-55.1L559.6,303.2z M526.3,495.2
	c0,11.7-9.5,21.4-21.4,21.4c-11.9,0-21.4-9.5-21.4-21.4V249.7c24.1,5.8,42.1,27.7,42.1,53.5L526.3,495.2z"/>
</svg>
