<?xml version="1.0" encoding="utf-8"?>
<!-- Generator: Adobe Illustrator 24.3.0, SVG Export Plug-In . SVG Version: 6.00 Build 0)  -->
<svg version="1.1" id="Layer_1" xmlns="http://www.w3.org/2000/svg" xmlns:xlink="http://www.w3.org/1999/xlink" x="0px" y="0px"
	 viewBox="0 0 850.4 850.4" style="enable-background:new 0 0 850.4 850.4;" xml:space="preserve">
<style type="text/css">
	.st0{fill:#1D1D1B;}
</style>
<g>
	<path class="st0" d="M330.6,174.4c-46.8,0-84.8,36-84.8,80.3v202c0,30,25.9,54.5,57.6,54.5s57.6-24.5,57.6-54.5V314.8
		c0-30-25.9-54.5-57.6-54.5c-8.5,0-16.6,1.7-23.9,4.9v-10.4c0-26.6,22.9-48.4,51.1-48.4c32.9,0,51.1,21.7,51.1,48.4l-0.2,226.9
		c0,25.4-22.7,51.6-50.9,51.6h-22.7l0,0c-34.6,1.7-62.1,28.8-62.1,62c0,34.3,29.5,62,65.5,62h101.9v-32H311.5
		c-17.5,0-31.7-13.4-31.7-30c0-16.6,14.2-30,31.7-30h20.7l0,0c46.1-0.9,83.2-36.4,83.2-80.1c0,0,0,0,0-0.2l0,0V254.8
		C415.2,210.4,385.7,174.4,330.6,174.4z M303.6,292c13.3,0,23.9,10.2,23.9,22.6v141.9c0,12.6-10.8,22.6-23.9,22.6
		c-13,0-23.9-10.2-23.9-22.6V314.8C279.5,302.3,290.3,292,303.6,292z"/>
	<path class="st0" d="M539.4,174.4c-19.8,0-37.6,8.3-49.7,21.5c-12.6-13.2-31-21.5-51.3-21.5c-3.1,0-6.5,0.2-9.7,0.6l4.7,31.7
		c1.6-0.2,3.4-0.4,5-0.4c19.6,0,35.3,15.1,35.3,33.5v129.3h33.8V236.6c0-16.6,14.2-30,31.7-30c17.5,0,31.7,13.4,31.7,30v236.3
		c0,23.4-20.2,42.6-45,42.6c-24.7,0-45-19.2-45-42.6v-19.6h-33.8v19.6c0,41.1,35.3,74.6,78.7,74.6s78.8-33.5,78.8-74.6V236.4
		C605.1,202.3,575.6,174.4,539.4,174.4z"/>
</g>
</svg>
