<?xml version="1.0" encoding="utf-8"?>
<!-- Generator: Adobe Illustrator 24.3.0, SVG Export Plug-In . SVG Version: 6.00 Build 0)  -->
<svg version="1.1" id="Layer_1" xmlns="http://www.w3.org/2000/svg" xmlns:xlink="http://www.w3.org/1999/xlink" x="0px" y="0px"
	 viewBox="0 0 850.4 850.4" style="enable-background:new 0 0 850.4 850.4;" xml:space="preserve">
<style type="text/css">
	.st0{fill:#1D1D1B;}
</style>
<g>
	<path class="st0" d="M635.9,486.9V175.6h-33.8v311.4c0,16.9-14.2,30.6-31.7,30.6s-31.7-13.7-31.7-30.6V175.6H505v311.4
		c0,16.9-14.2,30.6-31.7,30.6c-17.6,0-31.7-13.7-31.7-30.6V235.2c0.4-16.7-6.1-32.3-18-44.2c-12.4-12.1-29-18.9-46.8-18.9
		c-19.1,0-36.4,8-48.4,20.6c-0.4-0.4-9.9-20.4-48.4-20.4c-36.2,0-65.5,28.4-65.5,63.1v310.7h33.8V235.2c0-16.9,14.2-30.6,31.7-30.6
		c25.2,0,31.3,22.1,31.1,30.1v311.1h33.8V235.2c0-16.9,14.2-30.6,31.7-30.6c24.8,0,31.3,22.1,31.1,30.1v252.4
		c0,34.9,29.5,63.1,65.5,63.1c19.4,0,36.7-8,48.6-20.8c3.8,4.1,8.5,7.8,13.5,11.1c-9.7,9.3-6.3,34-6.3,34
		c0,24.5,20.7,44.4,46.1,44.4c4.3,0,8.3-0.7,12.4-1.7v10c0,8.2-5.6,15-12.4,15s-12.4-6.9-12.4-15h-33.8c0,26.2,20.7,47.5,46.1,47.5
		s46.1-21.2,46.1-47.5v-67.4h-0.2c-0.7-8.7-3.8-16.9-9-23.4C626.5,524.2,635.9,506.7,635.9,486.9z M574.9,586
		c-6.8,0-12.4-5.4-12.4-11.9v-11.7c0-6.5,5.6-11.9,12.4-11.9s12.4,5.4,12.4,11.9v11.7C587.3,580.8,581.7,586,574.9,586z"/>
</g>
</svg>
