<?xml version="1.0" encoding="utf-8"?>
<!-- Generator: Adobe Illustrator 24.3.0, SVG Export Plug-In . SVG Version: 6.00 Build 0)  -->
<svg version="1.1" id="Layer_1" xmlns="http://www.w3.org/2000/svg" xmlns:xlink="http://www.w3.org/1999/xlink" x="0px" y="0px"
	 viewBox="0 0 850.4 850.4" style="enable-background:new 0 0 850.4 850.4;" xml:space="preserve">
<style type="text/css">
	.st0{fill:#1D1D1B;}
</style>
<path class="st0" d="M473.8,172.9c-19.4,0-36.7,8-48.8,20.5c-0.5-0.6-12.8-20.5-48.4-20.5c-36.2,0-65.5,28.3-65.5,62.8v309.5h33.8
	V236c0-16.8,14.2-30.4,31.7-30.4c24.5,0,31,19,31,30V547h33.8V236c0-16.8,14.6-30.4,32.4-30.4c17.6,0,31.7,13.6,31.7,30.4v81.8
	c0,12.7-5.6,27.9-21.4,27.9h-17.8v32.4h17.8c15.8,0,21.4,14.9,21.4,27.9v141h33.8v-141c0-17.9-6.1-33.3-16.4-44.1
	c10.4-10.8,16.4-26.1,16.4-44.1V236C539.3,201.2,510,172.9,473.8,172.9z"/>
</svg>
