<?xml version="1.0" encoding="utf-8"?>
<!-- Generator: Adobe Illustrator 24.3.0, SVG Export Plug-In . SVG Version: 6.00 Build 0)  -->
<svg version="1.1" id="Layer_1" xmlns="http://www.w3.org/2000/svg" xmlns:xlink="http://www.w3.org/1999/xlink" x="0px" y="0px"
	 viewBox="0 0 850.4 850.4" style="enable-background:new 0 0 850.4 850.4;" xml:space="preserve">
<style type="text/css">
	.st0{fill:#1D1D1B;}
</style>
<path class="st0" d="M569,172.5c-24.5,0-45.9,12.8-57.6,31.9c-16.9-17.5-41.4-28.7-68.4-28.7c-15.3,0-29.9,3.6-42.8,10.1
	c-17.3-8.3-36.9-13.3-57.6-13.3c-69.8,0-126.4,53.9-126.4,120.2l-0.7,202.8c0,29.5,25.2,53.5,56.2,53.5s56.2-24,56.2-53.5V363.9
	c0-29.5-25.2-53.5-56.2-53.5c-7.9,0-15.1,1.5-21.8,4.3v-22c0-48.6,41.6-88.1,92.7-88.1c9.9,0,19.1,1.5,28.1,4.1
	c-20.3,20.3-20.2,50.9-20.2,50.9V494c0,31.2,26.6,56.5,59.4,56.5c31.9,0,58.1-24.2,59.4-54.3l0,0v-89c0-18.6-6.5-34.4-17.3-45.4
	c10.8-10.9,17.3-27,17.3-45.4v-26.3l0,0c-0.7-31.7-14.4-60.3-36.2-81.3c3.1-0.4,6.5-0.9,9.9-0.9c32.4,0,58.7,25,58.7,55.8v283.9v0.9
	h33.8v-0.9l0.5-310.6c0-17.8,14.9-32.3,32.9-32.3c17.8,0,32.4,14.5,32.4,32.3v80.6c0,13-5.4,28.2-20.7,28.2h-17.3v32.1l0,0h17.3
	c15.3,0,20.7,15.2,20.7,28.2v141.4h33.8V406.3c0-18-6.1-33.4-16.2-44.3c10.1-10.7,16.2-26.1,16.2-44.3v-80.6
	C635.1,201.4,605.4,172.5,569,172.5z M272,342.8c12.4,0,22.5,9.6,22.5,21.4v131.6c0,11.8-10.1,21.4-22.5,21.4s-22.5-9.6-22.5-21.4
	V364.2C249.5,352.4,259.6,342.8,272,342.8z M435.5,316.4c0,13.5-6.1,29.3-22.9,29.3h-18.5v32.1h18.5c16.9,0,22.9,15.8,22.9,29.3V494
	c0,13.5-11.5,24.4-25.6,24.4c-14.2,0-25.6-10.9-25.6-24.4V263.6c0-15.4,6.5-29.3,17.1-39.4c20.9,16.3,34.2,40.9,34.2,68.5
	L435.5,316.4L435.5,316.4z"/>
</svg>
