<?xml version="1.0" encoding="utf-8"?>
<!-- Generator: Adobe Illustrator 24.3.0, SVG Export Plug-In . SVG Version: 6.00 Build 0)  -->
<svg version="1.1" id="Layer_1" xmlns="http://www.w3.org/2000/svg" xmlns:xlink="http://www.w3.org/1999/xlink" x="0px" y="0px"
	 viewBox="0 0 850.4 850.4" style="enable-background:new 0 0 850.4 850.4;" xml:space="preserve">
<style type="text/css">
	.st0{fill:#1D1D1B;}
</style>
<path class="st0" d="M625.6,513.2V407c0-18.1-6.3-33.8-16.9-44.3c9.9-10.8,15.8-26,15.8-43.9v-81.5c0-35.7-29.7-64.8-66.2-64.8
	c-24.5,0-45.9,12.9-57.6,32.1c-16.9-17.6-41.4-28.8-68.4-28.8c-15.3,0-29.9,3.7-42.8,10.1c-17.3-8.4-36.9-13.3-57.6-13.3
	c-69.8,0-126.4,54.2-126.4,120.9l-0.7,203.9c0,29.7,25.2,53.8,56.2,53.8s56.2-24.1,56.2-53.8V365c0-29.7-25.2-53.8-56.2-53.8
	c-7.9,0-15.1,1.5-21.8,4.3v-22.2c0-48.8,41.6-88.6,92.7-88.6c9.9,0,19.1,1.5,28.1,4.1c-11.9,14.2-19.4,31.8-20.2,51.2l0,0v236
	c0,31.4,26.6,56.8,59.4,56.8c31.9,0,58-24.3,59.4-54.6l0,0v-89.5c0-18.7-6.5-34.6-17.3-45.6c10.8-11,17.3-27.1,17.3-45.6V291l0,0
	c-0.7-31.8-14.4-60.7-36.2-81.7c3.1-0.4,6.5-0.9,9.9-0.9c32.4,0,58.7,25.2,58.7,56.1v282.1v0.9h33.8v-0.9l0.5-309.4
	c0-17.9,14.9-32.5,32.9-32.5c17.8,0,32.4,14.6,32.4,32.5v81.1c0,13.1-5.4,28.4-20.7,28.4h-17.3V379h17.3h0.5
	c15.8,0,21.4,14.8,21.4,27.8v99.4c-21.6,3.7-38.2,21.7-38.2,43.5v11.6c0,24.3,20.7,44.1,46.1,44.1c4.3,0,8.3-0.6,12.4-1.7v9.9
	c0,8.2-5.6,14.8-12.4,14.8s-12.4-6.9-12.4-14.8h-33.8c0,26,20.7,47.1,46.1,47.1s46.1-21.1,46.1-47.1v-66.9
	C645.6,546.6,641.8,521,625.6,513.2z M261.5,343.7c12.4,0,22.5,9.7,22.5,21.5v132.3c0,11.8-10.1,21.5-22.5,21.5
	c-12.4,0-22.5-9.7-22.5-21.5V365.2C239,353.4,249.1,343.7,261.5,343.7z M425.1,317.3c0,13.6-6.1,29.5-22.9,29.5h-18.5V379h18.5
	c16.9,0,22.9,15.9,22.9,29.5V496c0,13.6-11.5,24.5-25.6,24.5c-14.2,0-25.6-11-25.6-24.5V264.3c0-15.5,6.5-29.5,17.1-39.6
	c20.9,16.3,34.2,41.1,34.2,68.8L425.1,317.3L425.1,317.3z M599.7,573c-6.8,0-12.4-5.4-12.4-11.8v-11.6c0-6.5,5.6-11.8,12.4-11.8
	s12.4,5.4,12.4,11.8v11.6C612.1,567.7,606.4,573,599.7,573z"/>
</svg>
