<?xml version="1.0" encoding="utf-8"?>
<!-- Generator: Adobe Illustrator 24.3.0, SVG Export Plug-In . SVG Version: 6.00 Build 0)  -->
<svg version="1.1" id="Layer_1" xmlns="http://www.w3.org/2000/svg" xmlns:xlink="http://www.w3.org/1999/xlink" x="0px" y="0px"
	 viewBox="0 0 850.4 850.4" style="enable-background:new 0 0 850.4 850.4;" xml:space="preserve">
<style type="text/css">
	.st0{fill:#1D1D1B;}
</style>
<path class="st0" d="M552,526.9V405.5c0-17.9-6.1-33.3-16.4-44.1c10.4-10.8,16.4-26.2,16.4-44.1v-81.9c0-34.8-29.5-62.9-65.5-62.9
	c-23,0-43.2,11.2-55.1,28.1c-16.2-17.3-39.6-28.1-65.7-28.1c-48.8,0-88.4,38-88.4,84.9v236c0,31.1,26.5,56.6,58.9,56.6
	s59-25.5,59-56.6V351.2c0-31.1-26.6-56.6-59-56.6c-9,0-17.5,1.9-25.2,5.4v-42.8c0-29,24.5-52.5,54.7-52.5s54.7,23.6,54.7,52.5v289.2
	h33.8v-311c0-16.9,14.6-30.5,32.4-30.5c17.5,0,31.7,13.6,31.7,30.5v81.9c0,12.8-5.6,27.9-21.4,27.9h-17.8v32.4h17.8
	c15.8,0,21.4,14.9,21.4,27.9v115.2c-21.2,3.9-37.4,21.8-37.4,43.4v50.8c0,24.4,20.7,44.3,46.1,44.3c25.4,0,46.1-19.9,46.1-44.3
	v-50.8C573.1,548.5,564.6,534.7,552,526.9z M336.2,327c14,0,25.2,10.8,25.2,24.2v142c0,13.4-11.2,24.2-25.2,24.2
	c-13.9,0-25.2-10.8-25.2-24.2v-142C311,337.8,322.3,327,336.2,327z M539.4,614.9c0,6.5-5.6,11.9-12.4,11.9s-12.4-5.4-12.4-11.9
	v-50.8c0-6.5,5.6-11.9,12.4-11.9s12.4,5.4,12.4,11.9V614.9z"/>
</svg>
