<?xml version="1.0" encoding="utf-8"?>
<!-- Generator: Adobe Illustrator 24.3.0, SVG Export Plug-In . SVG Version: 6.00 Build 0)  -->
<svg version="1.1" id="Layer_1" xmlns="http://www.w3.org/2000/svg" xmlns:xlink="http://www.w3.org/1999/xlink" x="0px" y="0px"
	 viewBox="0 0 850.4 850.4" style="enable-background:new 0 0 850.4 850.4;" xml:space="preserve">
<style type="text/css">
	.st0{fill:#1D1D1B;}
</style>
<g>
	<path class="st0" d="M296.4,504.3c29.2,0,52.9-23.3,52.9-51.7V448v-7V323.4v-3.7v-8.1c0-28.6-23.9-51.7-52.9-51.7
		c-6.8,0-13.3,1.3-19.1,3.5v-16.7c0-24,19.8-43.4,44.3-43.4s44.3,19.4,44.3,43.4v20V499h33.8V266.6v-13.4l0,0v-23.3v-0.4
		c-0.2-6.2,2.2-11.9,6.5-16.5c4.7-4.6,11-7.3,17.8-7.3c13.7,0,25.2,11,25.2,24.2v270h33.7v-83.2l0,0v-187v-0.4
		c-0.2-6.2,2.2-12.1,6.5-16.5c4.7-4.6,10.8-7.3,17.5-7.3c13.7,0,24.7,11,24.7,24.2v270h33.8V230.1c0-31.7-26.3-57.2-58.5-57.2
		c-15.8,0-30.4,5.9-41.4,16.9c-10.6-10.3-25.4-16.9-41.6-16.9c-16,0-31.1,6.2-42.1,17.4c-1.4,1.3-2.7,2.9-3.8,4.2
		c-14.2-14.7-34.4-24-56.7-24c-42.3,0-76.9,33-78.1,74.2l0,0v2.2v20v44.9v11.7v117.5v4.2v7.7C243.5,481.2,267.4,504.3,296.4,504.3z
		 M277.3,440.7V323.4v-11.7c0-10.3,8.5-18.7,19.1-18.7c10.6,0,19.1,8.4,19.1,18.7v8.1v3.7v117.5v7v4.6c0,10.3-8.6,18.7-19.1,18.7
		c-10.6,0-19.1-8.4-19.1-18.7v-7.7V440.7z"/>
	<path class="st0" d="M590,574.5c-7.4-7.3-16.9-11.9-28.6-14.5c-9.9-27.3-36-46.9-66.4-46.9c-18.9,0-36.2,7.7-48.8,20
		c-9.9-12.3-25-20-41.9-20c-14.4,0-27.7,5.5-37.8,15.6c-1.4,1.3-2.5,2.6-3.6,4c-12.6-12.3-29.9-19.8-48.6-19.8
		c-38.9,0-70.6,32.1-70.6,71.5v31.7v3.3v2v4.6v5.3c0,25.5,20.7,46.4,46.1,46.4c25.4,0,46.1-20.7,46.1-46.4V626v-4.6v-5.3
		c0-25.5-20.7-46.4-46.1-46.4c-3.4,0-6.8,0.4-9.9,1.1c5.2-14.5,18.7-24.9,34.6-24.9c20.5,0,36.9,17.4,36.9,38.5v18.3v68.7h33.8
		v-68.7v-14.5l0,0v-21.6v-0.4c-0.2-5.5,1.8-10.8,5.9-14.7c3.6-3.7,8.5-5.7,13.7-5.7c11,0,20,9.5,20,20.9V670h33.8v-67.3l0,0v-18.3
		c0-21.3,16.6-38.5,36.9-38.5c10.8,0,20.5,4.8,27.2,12.5c-13.5,1.8-24.5,6.6-32.8,14.3c-13.7,12.8-16.6,30.8-17.1,44.9l0,0
		c0,0.4,0,0.9,0,1.3c0,1.5,0,2.9,0,4.2v0.2h0.5c2.9,23.3,22.5,41.4,46.3,41.4c25.9,0,46.8-21.1,46.8-47.1v-10.1v-10.3
		c0.2,0.2,0.2,0.2,0.5,0.4c4.5,4.4,6.5,12.5,6.5,25.7v40.3v2.6v8.4c0,9.2-7.6,16.5-16.9,16.5c-9.5,0-16.9-7.5-16.9-16.5h-33.7
		c0,27.3,22.7,49.5,50.6,49.5c27.9,0,50.6-22.2,50.6-49.5v-8.4v-2.6v-40.3C606.7,609.5,604.9,588.8,590,574.5z M289.6,602.7
		c6.8,0,12.4,5.9,12.4,13.4v5.3v4.6v5.3c0,7.3-5.6,13.4-12.4,13.4s-12.4-5.9-12.4-13.4V626v-4.6v-2v-3.3
		C277.3,608.8,282.9,602.7,289.6,602.7z M532.2,618.1c0,7.7-5.9,14.1-13,14.1c-6.8,0-12.1-5.5-13-12.5c0.5-11.4,2.7-18.7,7-22.7
		c3.8-3.5,10.1-5.5,19.1-5.9v16.9L532.2,618.1L532.2,618.1z"/>
</g>
</svg>
