<?xml version="1.0" encoding="utf-8"?>
<!-- Generator: Adobe Illustrator 24.3.0, SVG Export Plug-In . SVG Version: 6.00 Build 0)  -->
<svg version="1.1" id="Layer_1" xmlns="http://www.w3.org/2000/svg" xmlns:xlink="http://www.w3.org/1999/xlink" x="0px" y="0px"
	 viewBox="0 0 850.4 850.4" style="enable-background:new 0 0 850.4 850.4;" xml:space="preserve">
<style type="text/css">
	.st0{fill:#1D1D1B;}
</style>
<g>
	<path class="st0" d="M673.1,179.2v306.9c0,16.7-14.2,30.2-31.7,30.2c-8.5,0-16.6-3.2-22.5-9c-5.6-5.6-8.8-12.9-8.5-20.8V179.2
		h-33.8v306.9c0,16.7-14.2,30.2-31.7,30.2c-8.5,0-16.7-3.2-22.5-9c-5.6-5.6-8.8-12.9-8.5-20.8V237.3c0-34.5-29.5-62.3-65.5-62.3
		c-19.6,0-37.1,8.1-49,21c-12.1-12.4-29.5-20.3-48.6-20.3c-18,0-34.6,6.6-47,18.8c-2.7,2.8-5.2,5.6-7.4,8.6
		c-16.2-16.9-39.4-27.4-65.2-27.4c-47.9,0-86.8,36.4-88.2,81.6l0,0v236.5c0,30.8,26.6,56.1,58.9,56.1s59-25.3,59-56.1V333.5
		c0-30.8-26.6-56.1-59-56.1c-9,0-17.6,1.9-25.2,5.4v-0.4v-22.7c0-28.7,24.5-52,54.7-52c30.1,0,54.7,23.3,54.7,52v286.6h33.8V237.9
		v-0.4c-0.2-7.7,2.7-15,8.6-20.6c6.1-5.8,14.2-9.2,22.9-9.2c17.8,0,32.2,13.5,32.2,30.2V547h33.8V238.1c0-0.2,0-0.4,0-0.6l0,0
		c0-16.7,14.2-30.2,31.7-30.2s31.7,13.5,31.7,30.2v248.7c-0.4,16.5,6.1,31.9,18,43.7c12.4,12,29,18.6,46.8,18.6
		c19.1,0,36.5-7.9,48.4-20.3c0.5,0.4,1.1,1.1,1.6,1.5c12.4,12,29,18.6,46.8,18.6c36.2,0,65.5-28.1,65.5-62.3V179.2H673.1z
		 M201.1,309.5c13.9,0,25.2,10.7,25.2,24v160c0,13.3-11.2,24-25.2,24s-25.2-10.7-25.2-24v-160C175.9,320.4,187.1,309.5,201.1,309.5z
		"/>
</g>
</svg>
