<?xml version="1.0" encoding="utf-8"?>
<!-- Generator: Adobe Illustrator 24.3.0, SVG Export Plug-In . SVG Version: 6.00 Build 0)  -->
<svg version="1.1" id="Layer_1" xmlns="http://www.w3.org/2000/svg" xmlns:xlink="http://www.w3.org/1999/xlink" x="0px" y="0px"
	 viewBox="0 0 850.4 850.4" style="enable-background:new 0 0 850.4 850.4;" xml:space="preserve">
<style type="text/css">
	.st0{fill:#1D1D1B;}
</style>
<g>
	<path class="st0" d="M668,376.1v-135c0-36.4-31-66.1-69.1-66.1c-23.2,0-43.7,11-56.2,27.8c-15.5-17-38.5-27.8-63.9-27.8
		c-11.5,0-22.5,2.2-32.4,6.2c-10.1-3.9-21.4-6.2-33.1-6.2c-29.2,0-55.1,13.8-71.1,34.7c-16-21.1-42.1-34.7-71.3-34.7
		c-48.8,0-88.4,37.9-88.4,84.6v235.2c0,31,26.6,56.4,58.9,56.4s58.9-25.4,58.9-56.4V348.6c0-31-26.6-56.4-58.9-56.4
		c-9,0-17.6,1.9-25.2,5.4v-38.1c0-28.9,24.5-52.3,54.7-52.3c30.1,0,54.7,23.5,54.7,52.3v288.2h33.8v-288v-0.4
		c0-27.8,23-50.6,51.8-51.7c-10.8,13.6-17.1,30.4-17.1,48.7l0.4,110.5c2.9,25.6,25.6,45.4,53.1,45.4c29.5,0,53.5-23,53.5-51.3V259.2
		c0-19.4-7-37.3-18.7-51.7c26.3,1.9,47.2,23,47.2,48.7v151.6h33.8V241.3c0-18.7,16-33.8,35.3-33.8c19.6,0,35.3,15.3,35.3,33.8
		c0,0,0,134,0,135c0,26.9-23,48.9-51.1,48.9H459.4c-36.2,0-65.5,28.2-65.5,62.7s29.5,62.7,65.5,62.7h49.3v-32.3
		c2.2-23,13.5-42.4,28.6-52.1c-2.7,7.3-4.1,15.1-4.1,23.5c0,33.6,24.1,61.2,54,62.2l0,0h30.2c28.3,0,50.4-27.4,50.4-62.5
		c0-24.1-10.3-44.4-26.1-54.9C657.8,419.9,668,399.2,668,376.1z M241.4,324.7c13.9,0,25.2,10.8,25.2,24.1v145.8
		c0,13.4-11.2,24.1-25.2,24.1s-25.2-10.8-25.2-24.1v-146C216.2,335.6,227.4,324.7,241.4,324.7z M467.3,360.8c0,10.6-8.8,19-19.8,19
		s-19.8-8.4-19.8-19V256.2c0-15.3,7.4-28.9,18.9-37.9c12.6,9.5,20.7,24.1,20.7,40.7L467.3,360.8z M427.7,487.7
		c0-16.8,14.2-30.4,31.7-30.4h39.4c-13.3,15.9-22,37.3-23.9,61h-15.5C442.1,518.3,427.7,504.5,427.7,487.7z M617.6,519.6h-28.3
		c-12.2,0-22.3-13.8-22.3-30.2c0-16.4,10.1-30.2,22.3-30.2h28.1c7.6,0,16.6,13.1,16.6,30.2S625.2,519.6,617.6,519.6z"/>
</g>
</svg>
