<?xml version="1.0" encoding="utf-8"?>
<!-- Generator: Adobe Illustrator 24.3.0, SVG Export Plug-In . SVG Version: 6.00 Build 0)  -->
<svg version="1.1" id="Layer_1" xmlns="http://www.w3.org/2000/svg" xmlns:xlink="http://www.w3.org/1999/xlink" x="0px" y="0px"
	 viewBox="0 0 850.4 850.4" style="enable-background:new 0 0 850.4 850.4;" xml:space="preserve">
<style type="text/css">
	.st0{fill:#1D1D1B;}
</style>
<g>
	<path class="st0" d="M761.1,520.8l0.5-245.2c0-58.1-48.8-105.6-109.1-105.6c-14,0-27.2,2.6-39.4,7.2c-11.9-4.6-25-7.2-38.7-7.2
		c-37.8,0-70.9,19.2-89.8,48.1c-19.6-29-53.1-48.1-91.4-48.1c-14,0-27.2,2.6-39.4,7.2c-11.9-4.6-25-7.2-38.7-7.2
		c-34.6,0-65.5,16.3-84.8,41.4c-15.5-24.8-43.6-41.4-75.6-41.4c-48.8,0-88.4,38.3-88.4,85.6v237.8c0,31.4,26.6,57,58.9,57
		s58.9-25.7,58.9-57V345.7c0-31.4-26.6-57-58.9-57c-9,0-17.6,2-25.2,5.4v-38.5c0-29.2,24.5-52.9,54.7-52.9s54.7,23.7,54.7,52.9
		v291.3h33.8V272.6c0-38.3,31.9-69.5,71.3-69.7c-18.7,18.9-30.1,44.6-30.1,72.9v212.3h0.2c2,34.8,32,62.5,68.2,62.5
		s66.1-27.7,68.2-62.5h0.2V272.6c0-27-10.8-51.4-28.4-69.7c0.2,0,0.5,0,0.7,0c41.4,0,75.4,32.7,75.4,72.9l-0.4,271.1h33.8l0.5-274.3
		c0-38.3,32-69.5,71.3-69.7c-18.7,18.9-30.2,44.6-30.2,72.9l0.2,212.3c2,34.8,32,62.5,68.2,62.5c36.2,0,66.1-27.7,68.2-62.5
		l0.2-215.6c0-27-10.8-51.4-28.3-69.7c0.2,0,0.5,0,0.7,0c41.4,0,75.4,32.7,75.4,72.9L727.8,516c-20.7,4.4-36,22.2-36,43.5v11.8
		c0,24.6,20.7,44.6,46.1,44.6c4.3,0,8.3-0.7,12.4-1.7v10c0,8.3-5.6,15-12.4,15s-12.4-7-12.4-15h-33.8c0,26.3,20.7,47.7,46.1,47.7
		s46.1-21.3,46.1-47.7v-68.2C784.1,556.1,785.4,525.4,761.1,520.8z M125.5,321.3c13.9,0,25.2,10.9,25.2,24.4v147.6
		c0,13.5-11.2,24.4-25.2,24.4s-25.2-10.9-25.2-24.4V345.9C100.3,332.2,111.5,321.3,125.5,321.3z M387.4,272.3v211.9
		c0,18.5-15.5,33.5-34.6,33.5s-34.6-15-34.6-33.5V275.4c0-26.1,14.4-49.2,35.8-62.1C374.1,226,387.4,247.7,387.4,272.3z
		 M646.6,272.3v211.9c0,18.5-15.5,33.5-34.7,33.5s-34.6-15-34.6-33.5V275.4c0-26.1,14.4-49.2,35.8-62.1
		C633.3,226,646.6,247.7,646.6,272.3z M737.5,582.8L737.5,582.8c-6.8,0-12.4-5.4-12.4-12v-11.8c0-6.5,5.6-12,12.4-12
		s12.4,5.4,12.4,12v11.8C749.9,577.4,744.2,582.8,737.5,582.8z"/>
</g>
</svg>
