<?xml version="1.0" encoding="utf-8"?>
<!-- Generator: Adobe Illustrator 24.3.0, SVG Export Plug-In . SVG Version: 6.00 Build 0)  -->
<svg version="1.1" id="Layer_1" xmlns="http://www.w3.org/2000/svg" xmlns:xlink="http://www.w3.org/1999/xlink" x="0px" y="0px"
	 viewBox="0 0 850.4 850.4" style="enable-background:new 0 0 850.4 850.4;" xml:space="preserve">
<style type="text/css">
	.st0{fill:#1D1D1B;}
</style>
<path class="st0" d="M425.2,249.9c-35.4,0-64,28.8-64,64v175.3c0,35.4,28.8,64,64,64s64-28.8,64-64V313.9
	C489.2,278.7,460.6,249.9,425.2,249.9z M456.2,489.5c0,17.2-13.9,31-31,31s-31-13.9-31-31V314.1c0-17.2,13.9-31,31-31s31,13.9,31,31
	V489.5z"/>
</svg>
