<?xml version="1.0" encoding="utf-8"?>
<!-- Generator: Adobe Illustrator 24.3.0, SVG Export Plug-In . SVG Version: 6.00 Build 0)  -->
<svg version="1.1" id="Layer_1" xmlns="http://www.w3.org/2000/svg" xmlns:xlink="http://www.w3.org/1999/xlink" x="0px" y="0px"
	 viewBox="0 0 850.4 850.4" style="enable-background:new 0 0 850.4 850.4;" xml:space="preserve">
<style type="text/css">
	.st0{fill:#1D1D1B;}
</style>
<path class="st0" d="M425.2,245c-85.9,0-155.7,69.7-155.7,155.7s69.8,155.7,155.7,155.7s155.7-69.8,155.7-155.7
	C580.9,314.9,511.1,245,425.2,245z M425.2,522.6c-67.3,0-121.9-54.7-121.9-122s54.7-122,121.9-122s122,54.7,122,122
	S492.5,522.6,425.2,522.6z"/>
</svg>
