<?xml version="1.0" encoding="utf-8"?>
<!-- Generator: Adobe Illustrator 24.3.0, SVG Export Plug-In . SVG Version: 6.00 Build 0)  -->
<svg version="1.1" id="Layer_1" xmlns="http://www.w3.org/2000/svg" xmlns:xlink="http://www.w3.org/1999/xlink" x="0px" y="0px"
	 viewBox="0 0 850.4 850.4" style="enable-background:new 0 0 850.4 850.4;" xml:space="preserve">
<style type="text/css">
	.st0{fill:#1D1D1B;}
</style>
<path class="st0" d="M425.2,556.4c-118.8,0-215.5-96.8-215.5-215.6s96.8-215.5,215.5-215.5S640.7,222,640.7,340.8
	S544,556.4,425.2,556.4z M425.2,159c-100.3,0-181.8,81.4-181.8,181.8s81.4,181.8,181.8,181.8S607,441.2,607,340.8
	S525.5,159,425.2,159z"/>
</svg>
