<?xml version="1.0" encoding="utf-8"?>
<!-- Generator: Adobe Illustrator 24.3.0, SVG Export Plug-In . SVG Version: 6.00 Build 0)  -->
<svg version="1.1" id="Layer_1" xmlns="http://www.w3.org/2000/svg" xmlns:xlink="http://www.w3.org/1999/xlink" x="0px" y="0px"
	 viewBox="0 0 850.4 850.4" style="enable-background:new 0 0 850.4 850.4;" xml:space="preserve">
<style type="text/css">
	.st0{fill:#1D1D1B;}
</style>
<g>
	<path class="st0" d="M372.5,393.3v14v99.9h16.9h96.3h42.5H562v-6.3V180.4h-33.8v293.2H406.3v-66.4v-14c0-32.4-26.6-58.9-58.9-58.9
		s-59,26.6-59,58.9v10.4v3.6v99.9h33.8v-99.9v-3.6v-10.4c0-13.9,11.2-25.2,25.2-25.2C361.3,368.1,372.5,379.3,372.5,393.3z"/>
	<path class="st0" d="M528.2,527.4V639c0,8.8-6.3,16-14.2,16s-14.2-7.2-14.2-16v-2.5v-41.9c0-39.1-30.6-70.9-68.2-70.9
		s-68.2,31.7-68.2,70.9v41.9h0.7v7.6c0,24.5,20,44.5,44.5,44.5c24.5,0,44.6-20,44.6-44.5v-15.3c0-24.5-20-44.5-44.6-44.5
		c-3.6,0-7,0.5-10.4,1.4c3.8-16.2,17.1-28.4,33.3-28.4c18.9,0,34.4,16.6,34.4,37.1v41.9v2.5c0,27.5,21.6,49.7,47.9,49.7
		s47.9-22.3,47.9-49.7V527.4H528.2z M408.8,618.3c5.9,0,10.8,5,10.8,10.8v15.3c0,5.8-5,10.8-10.8,10.8s-10.8-5-10.8-10.8v-15.3
		C398,623,402.9,618.3,408.8,618.3z"/>
</g>
</svg>
