<?xml version="1.0" encoding="utf-8"?>
<!-- Generator: Adobe Illustrator 24.3.0, SVG Export Plug-In . SVG Version: 6.00 Build 0)  -->
<svg version="1.1" id="Layer_1" xmlns="http://www.w3.org/2000/svg" xmlns:xlink="http://www.w3.org/1999/xlink" x="0px" y="0px"
	 viewBox="0 0 850.4 850.4" style="enable-background:new 0 0 850.4 850.4;" xml:space="preserve">
<style type="text/css">
	.st0{fill:#1D1D1B;}
</style>
<g>
	<path class="st0" d="M512.7,514.5c-12.4,0-23.6,4.5-32.4,12.2c-8.8-7.7-20-12.2-32.4-12.2c-27.2,0-49.3,22.1-49.3,49.3v2.5v115.9
		h33.8V574.4l0,0v-10.8c0-8.5,7-15.5,15.5-15.5c8.5,0,15.5,7,15.5,15.5v5.4v5.4v107.8h33.8V574.6v-5.4v-5.4c0-8.5,7-15.5,15.5-15.5
		s15.5,7,15.5,15.5v5.4v5.4v107.8H562V574.6v-5.4v-5.4C562,536.6,539.9,514.5,512.7,514.5z"/>
	<path class="st0" d="M528.2,176.4V470H406.3v-66.6v-14c0-32.4-26.6-58.9-58.9-58.9s-59,26.6-59,58.9v10.4v3.6v99.9h33.8v-99.9v-3.6
		v-10.4c0-14,11.2-25.2,25.2-25.2c13.9,0,25.2,11.2,25.2,25.2v13.9v99.9h16.9h170.1h2.5V176.4H528.2z"/>
</g>
</svg>
