<?xml version="1.0" encoding="utf-8"?>
<!-- Generator: Adobe Illustrator 24.3.0, SVG Export Plug-In . SVG Version: 6.00 Build 0)  -->
<svg version="1.1" id="Layer_1" xmlns="http://www.w3.org/2000/svg" xmlns:xlink="http://www.w3.org/1999/xlink" x="0px" y="0px"
	 viewBox="0 0 850.4 850.4" style="enable-background:new 0 0 850.4 850.4;" xml:space="preserve">
<style type="text/css">
	.st0{fill:#1D1D1B;}
</style>
<path class="st0" d="M528.5,178.7V305c0,13.8-11.2,24.9-25.2,24.9s-25.2-11.1-25.2-24.9l0,0v-84.4c0-32.1-26.6-58.3-58.9-58.3
	s-58.9,26.3-58.9,58.3V290h33.8v-69.5c0-13.8,11.2-24.9,25.2-24.9c13.9,0,25.2,11.1,25.2,24.9V305l0,0c0,32.1,26.6,58.3,59,58.3
	c9,0,17.5-2,25.2-5.6v156.1H406.1V377.3c0-32.1-26.5-58.3-58.9-58.3s-58.9,26.3-58.9,58.3v169.9h33.8V377.3
	c0-13.8,11.2-24.9,25.2-24.9s25.2,11.1,25.2,24.9v169.9H472c-3.6,7.8-2,25.4-2,25.4c0,25.2,20.7,45.6,46.1,45.6
	c4.3,0,8.3-0.7,12.4-1.8v10.2c0,8.5-5.6,15.4-12.4,15.4c-6.8,0-12.4-7.1-12.4-15.4H470c0,26.9,20.7,48.8,46.1,48.8
	c25.4,0,46.1-21.8,46.1-48.8v-69.2H562c-0.2-3.6-0.9-6.9-1.8-10h2V178.7H528.5z M516.1,584.8c-6.7,0-12.4-5.6-12.4-12.2v-12
	c0-6.7,5.6-12.2,12.4-12.2c6.8,0,12.4,5.6,12.4,12.2v12C528.5,579.5,522.8,584.8,516.1,584.8z"/>
</svg>
