<?xml version="1.0" encoding="utf-8"?>
<!-- Generator: Adobe Illustrator 24.3.0, SVG Export Plug-In . SVG Version: 6.00 Build 0)  -->
<svg version="1.1" id="Layer_1" xmlns="http://www.w3.org/2000/svg" xmlns:xlink="http://www.w3.org/1999/xlink" x="0px" y="0px"
	 viewBox="0 0 850.4 850.4" style="enable-background:new 0 0 850.4 850.4;" xml:space="preserve">
<style type="text/css">
	.st0{fill:#1D1D1B;}
</style>
<path class="st0" d="M528.6,178.5v126c0,13.8-11.2,24.9-25.2,24.9c-14,0-25.2-11.1-25.2-24.9v-84c0-32-26.6-58.2-58.9-58.2
	s-59,26.2-59,58.2v69.3H394v-69.6c0-13.8,11.2-24.9,25.2-24.9c13.9,0,25.2,11.1,25.2,24.9v84.2c0,32,26.6,58.2,58.9,58.2
	c9,0,17.5-2,25.2-5.6V513H406.2V376.7c0-32-26.6-58.2-58.9-58.2s-59,26.2-59,58.2v169.6H322V376.7c0-13.8,11.2-24.9,25.2-24.9
	c13.9,0,25.2,11.1,25.2,24.9v169.6h97.6c-1.1,3.8-1.8,8-1.8,12.2v52.2c0,25.1,20.7,45.6,46.1,45.6c25.4,0,46.1-20.4,46.1-45.6v-52.2
	c0-4.2-0.7-8.2-1.8-12.2h3.4V178.5H528.6z M526.8,610.8c0,6.7-5.6,12.2-12.4,12.2s-12.4-5.6-12.4-12.2v-52.2
	c0-6.7,5.6-12.2,12.4-12.2s12.4,5.6,12.4,12.2V610.8z"/>
</svg>
