<?xml version="1.0" encoding="utf-8"?>
<!-- Generator: Adobe Illustrator 24.3.0, SVG Export Plug-In . SVG Version: 6.00 Build 0)  -->
<svg version="1.1" id="Layer_1" xmlns="http://www.w3.org/2000/svg" xmlns:xlink="http://www.w3.org/1999/xlink" x="0px" y="0px"
	 viewBox="0 0 850.4 850.4" style="enable-background:new 0 0 850.4 850.4;" xml:space="preserve">
<style type="text/css">
	.st0{fill:#1D1D1B;}
</style>
<path class="st0" d="M562,180.6h-33.8v338.8H406.3v-124v-14c0-32.4-26.6-58.9-59-58.9s-58.9,26.6-58.9,58.9v10.4v3.6v157.7h33.8
	V395.5v-3.6v-10.4c0-13.9,11.2-25.2,25.2-25.2c14,0,25.2,11.2,25.2,25.2v14v157.7h33.8l0,0h121.9v36l0,0c0,1.1,0,6.5,0,8.6
	c0,17.8-10.8,33.1-26.5,40.9c1.1-4,1.8-8.3,1.8-12.8c0-28.1-24.1-51.1-54-52.2l0,0h-2h-13h-20.2c-30.8,0-56,23.4-56,52.2
	c0,28.8,25.2,52.2,56,52.2h20.2h10.1h2.9h29.9c46.8,0,84.8-36.2,84.6-80.5c0,0,0-2,0-4.5l0,0V180.6z M444.3,644.5h-10.1h-20.2
	c-12.4,0-22.3-8.3-22.3-18.5s9.9-18.4,22.3-18.4h20.2h13c12.4,0,22.3,8.3,22.3,18.4s-9.9,18.5-22.3,18.5H444.3z"/>
</svg>
