<?xml version="1.0" encoding="utf-8"?>
<!-- Generator: Adobe Illustrator 24.3.0, SVG Export Plug-In . SVG Version: 6.00 Build 0)  -->
<svg version="1.1" id="Layer_1" xmlns="http://www.w3.org/2000/svg" xmlns:xlink="http://www.w3.org/1999/xlink" x="0px" y="0px"
	 viewBox="0 0 850.4 850.4" style="enable-background:new 0 0 850.4 850.4;" xml:space="preserve">
<style type="text/css">
	.st0{fill:#1D1D1B;}
</style>
<path class="st0" d="M563.3,178.3v303.9v8.3v23.4H437.8V390V376c0-32.4-26.6-59-58.9-59s-59,26.6-59,59v10.4v3.6v157.7h33.8V390
	v-3.6V376c0-14,11.2-25.2,25.2-25.2c13.9,0,25.2,11.2,25.2,25.2V390v157.7h33.8l0,0h125.5v33.1c0,30.2-24.5,54.7-54.7,54.7H341.9
	c-30.1,0-54.7-24.5-54.7-54.7v-12.1v-11.5V178.3h-33.8v378.8v11.7V581c0,44.8,33.5,81.9,76.7,87.5v0.9h187.4V669
	c44.5-4.5,79.2-42.3,79.2-88v-90.2v-8.3V178.3H563.3z"/>
</svg>
