<?xml version="1.0" encoding="utf-8"?>
<!-- Generator: Adobe Illustrator 24.3.0, SVG Export Plug-In . SVG Version: 6.00 Build 0)  -->
<svg version="1.1" id="Layer_1" xmlns="http://www.w3.org/2000/svg" xmlns:xlink="http://www.w3.org/1999/xlink" x="0px" y="0px"
	 viewBox="0 0 850.4 850.4" style="enable-background:new 0 0 850.4 850.4;" xml:space="preserve">
<style type="text/css">
	.st0{fill:#1D1D1B;}
</style>
<g>
	<path class="st0" d="M587.9,608.5c-1.4-15.1-6.5-28.1-14.9-37.8c7.4-7.9,13.7-17.8,14.2-31.9l0,0c0-8.1-1.6-15.5-4.5-22.1h32.8
		V178.3h-33.8V483h-61.2V244.5h-0.2c-2-38.2-34-68.6-72.9-68.6c-25.2,0-47.5,12.8-60.5,31.9c-16.2-18.9-40.3-30.8-67-30.8
		c-47.9,0-86.8,38.2-88.2,85.7l0,0v197.1c0,32.2,25.2,59.2,57.1,60.1c33.3,0.9,60.8-25.9,60.8-59V344.4c0-31.7-24.3-58.7-56-60.3
		c-10.1-0.4-19.8,1.6-28.1,5.6v-0.4v-22.5c0-30.4,24.8-56.3,55.1-55.8c29.5,0.2,53.6,24.3,54,53.8V516l0,0v0.9h33.8V248.3
		c0-21.4,17.6-38.9,39.1-38.9c21.6,0,39.1,17.3,39.1,38.9V503c-9.9,10.1-16.2,24.1-16.6,39.1l0,0v108h33.8V543.9
		c0-14,11.2-25.2,25-25.2c6.8,0,21.6,1.6,23.8,16.2c0,0.2,0,0.7,0,1.1c-1.8,11.9-7.6,16.4-20,16.4h-17.8v33.8h17.8
		c15.3,0,19.6,13.7,20.7,21.8c-18.9,5.9-32.6,23.4-32.6,44.1v33.3c0,25.4,20.7,46.1,46.1,46.1h5.9c25.4,0,46.1-20.7,46.1-46.1v-33.3
		C619.4,631.9,606.3,614.8,587.9,608.5z M291.1,317.6c14,0,25.2,11.2,25.2,25.2v117.9c0,13.9-11.2,25.2-25.2,25.2
		c-13.9,0-25.2-11.2-25.2-25.2V342.8C265.9,328.8,277.1,317.6,291.1,317.6z M585.6,685.7c0,6.8-5.6,12.4-12.4,12.4h-5.9
		c-6.8,0-12.4-5.6-12.4-12.4v-33.3c0-6.8,5.6-12.4,12.4-12.4h5.9c6.8,0,12.4,5.6,12.4,12.4V685.7z"/>
</g>
</svg>
