<?xml version="1.0" encoding="utf-8"?>
<!-- Generator: Adobe Illustrator 24.3.0, SVG Export Plug-In . SVG Version: 6.00 Build 0)  -->
<svg version="1.1" id="Layer_1" xmlns="http://www.w3.org/2000/svg" xmlns:xlink="http://www.w3.org/1999/xlink" x="0px" y="0px"
	 viewBox="0 0 850.4 850.4" style="enable-background:new 0 0 850.4 850.4;" xml:space="preserve">
<style type="text/css">
	.st0{fill:#1D1D1B;}
</style>
<g>
	<path class="st0" d="M425.4,172.1c-41.2,0-74.7,32-74.7,71.2V547h33.8V243.4c0-21.4,18.4-38.8,40.9-38.8
		c22.3,0,40.3,17.3,40.3,38.8c0,0,0,63.7,0,64.1c0,6.7-4.7,12.3-11,13.9h-0.9c-27,0-49,21-49,46.6c0,25.3,21.6,46.3,47.9,46.6
		c0,0,12.6-0.2,12.6,12.1v120.2H499L498.8,422c-1.6-11-6.1-21-15.5-28.6c-5.2-4.1-11.9-6.7-18.2-8.9c0,0-4.3-1.3-16-3.2l0,0
		c-5.9-1.7-10.1-7.1-10.1-13.4c0-6.1,3.8-10.8,9.2-13c18.7-4.1,18.7-4.1,18.7-4.1c19.6-6.5,31.7-21.2,32.6-41.1h0.2v-66.3
		C499.4,204,466.4,172.1,425.4,172.1z"/>
</g>
</svg>
