<?xml version="1.0" encoding="utf-8"?>
<!-- Generator: Adobe Illustrator 24.3.0, SVG Export Plug-In . SVG Version: 6.00 Build 0)  -->
<svg version="1.1" id="Layer_1" xmlns="http://www.w3.org/2000/svg" xmlns:xlink="http://www.w3.org/1999/xlink" x="0px" y="0px"
	 viewBox="0 0 850.4 850.4" style="enable-background:new 0 0 850.4 850.4;" xml:space="preserve">
<style type="text/css">
	.st0{fill:#1D1D1B;}
</style>
<g>
	<path class="st0" d="M485.9,389.8L485.9,389.8L485.9,389.8c-0.5,0-0.9,0-1.1,0c-8.6-2.6-18.4-8.7-18.4-23.3
		c0-13.3,7.4-26.6,23.4-29l0,0c0.9,0,1.6-0.2,2.5-0.4c0.9,0,1.6-0.2,2.5-0.2l0,0c23.4-4.4,38.5-23.8,38.7-51.1l0,0v-42.1
		c0-39.7-33.3-71.8-74-71.8c-41.2,0-74.7,32.3-74.7,71.8v25.3l0,0v280.6h33.8V255l0,0v-11.3c0-21.6,18.5-39.1,41-39.1
		c22.3,0,40.3,17.5,40.3,39.1v40.6l0,0c0,6.8-1.4,18.1-11,20.3c-32.4,2.8-56.2,28.4-56.2,61.7c0,31.6,23.9,55,58.5,57.8
		c5.9,2.2,8.5,6.8,8.8,17.2l0,0v85.3v22.7V582c0,33.8-28.4,61.1-63,61.1h-20.5c-36.2,0-65.7-28.6-65.7-63.7V572v-19.2V179.5h-33.8
		v373.3V572v7.4c0,49.5,38.7,90.5,88.4,95.8v0.7h40v-0.4c49.5-4.1,88.4-44.5,88.4-93.6v-32.7v-22.5v-81.4
		C534.5,401.6,505.1,391.8,485.9,389.8z"/>
</g>
</svg>
