<?xml version="1.0" encoding="utf-8"?>
<!-- Generator: Adobe Illustrator 24.3.0, SVG Export Plug-In . SVG Version: 6.00 Build 0)  -->
<svg version="1.1" id="Layer_1" xmlns="http://www.w3.org/2000/svg" xmlns:xlink="http://www.w3.org/1999/xlink" x="0px" y="0px"
	 viewBox="0 0 850.4 850.4" style="enable-background:new 0 0 850.4 850.4;" xml:space="preserve">
<style type="text/css">
	.st0{fill:#1D1D1B;}
</style>
<g>
	<path class="st0" d="M521.4,265.8c0-53.2-43.2-96.5-96.3-96.5s-96.3,43.3-96.3,96.5v279.2h33.8V265.8c0-35.3,28.1-64.1,62.6-64.1
		s62.5,28.8,62.5,64.1v12.3c-7.6-3.5-16-5.4-24.8-5.4c-31.9,0-57.8,24.5-58.7,55l0,0v1.7v160.8v0.6l0,0c0.2,31,26.6,56.1,58.7,56.1
		c32.4,0,58.7-25.3,58.7-56.5L521.4,265.8z M462.7,514.6c-13.7,0-25-10.8-25-24v-13.4v-134v-13.4c0-13.4,11.2-24.2,25-24.2
		c12.6,0,23.2,9.1,24.8,21v158.2h0.2v6.1C487.9,503.7,476.6,514.6,462.7,514.6z"/>
</g>
</svg>
