<?xml version="1.0" encoding="utf-8"?>
<!-- Generator: Adobe Illustrator 24.3.0, SVG Export Plug-In . SVG Version: 6.00 Build 0)  -->
<svg version="1.1" id="Layer_1" xmlns="http://www.w3.org/2000/svg" xmlns:xlink="http://www.w3.org/1999/xlink" x="0px" y="0px"
	 viewBox="0 0 850.4 850.4" style="enable-background:new 0 0 850.4 850.4;" xml:space="preserve">
<style type="text/css">
	.st0{fill:#1D1D1B;}
</style>
<g>
	<path class="st0" d="M492.2,544.9l-11.5-31.3c63.7-22.8,106.4-83.1,106.4-150.1c0-88-72.7-159.6-162-159.6s-162,71.6-162,159.6
		c0,66.3,42.3,126.6,105.5,149.6L357,544.4c-76.3-27.9-127.6-100.6-127.6-180.9c0-106.4,87.7-192.8,195.7-192.8
		s195.8,86.4,195.8,192.8C620.7,444.2,569.2,517.1,492.2,544.9z"/>
</g>
</svg>
