<?xml version="1.0" encoding="utf-8"?>
<!-- Generator: Adobe Illustrator 24.3.0, SVG Export Plug-In . SVG Version: 6.00 Build 0)  -->
<svg version="1.1" id="Layer_1" xmlns="http://www.w3.org/2000/svg" xmlns:xlink="http://www.w3.org/1999/xlink" x="0px" y="0px"
	 viewBox="0 0 850.4 850.4" style="enable-background:new 0 0 850.4 850.4;" xml:space="preserve">
<style type="text/css">
	.st0{fill:#1D1D1B;}
</style>
<g>
	<path class="st0" d="M511.4,581.8c3.6-9.7,5.4-20.2,5.4-31c0-50.6-41.2-91.8-91.8-91.8s-91.8,41.2-91.8,91.8
		c0,38.2,24.1,72.7,59.9,86.2l11.7-31.5c-22.7-8.3-37.8-30.4-37.8-54.5c0-31.9,26.1-58,58.1-58S483,519,483,551
		c0,24.3-15.3,46.4-38.2,54.7l6.8,18.7c0,1.6,0,54.9,0,54.9c0,24.1,20.7,43.6,46.1,43.6c25.4,0,46.1-19.6,46.1-43.6v-58.1
		C543.8,621.2,546,589.2,511.4,581.8z M510.5,679c0,5.4-5.6,9.9-12.4,9.9s-12.4-4.5-12.4-9.9v-55.6c0.4-2,1.4-4.5,2.9-6.3
		c2-2.2,5.2-3.4,9.4-3.4c6.8,0,12.4,4.5,12.4,9.9V679z"/>
	<path class="st0" d="M382.4,441.2C335,423.4,303,377.5,303,326.6c0-67.3,54.7-122.2,122.2-122.2s122.2,54.7,122.2,122.2
		c0,51.1-32.2,97.2-80.1,114.8l11.5,31.7c61.2-22.3,102.4-81.2,102.4-146.5c0-86-70-155.9-155.9-155.9s-155.9,70-155.9,155.9
		c0,64.8,40.7,123.5,101.5,146L382.4,441.2z"/>
</g>
</svg>
