<?xml version="1.0" encoding="utf-8"?>
<!-- Generator: Adobe Illustrator 24.3.0, SVG Export Plug-In . SVG Version: 6.00 Build 0)  -->
<svg version="1.1" id="Layer_1" xmlns="http://www.w3.org/2000/svg" xmlns:xlink="http://www.w3.org/1999/xlink" x="0px" y="0px"
	 viewBox="0 0 850.4 850.4" style="enable-background:new 0 0 850.4 850.4;" xml:space="preserve">
<style type="text/css">
	.st0{fill:#1D1D1B;}
</style>
<path class="st0" d="M425.2,125.2c-40.9,0-74.2,29.5-74.2,65.7c0,0,0,84.8,0,85.3c0,18,8.3,34.6,23.6,46.8
	c13.3,10.8,30.6,16.9,48.8,17.6l0,0c11.9,0,23.2,3.6,31.3,10.4c7,5.6,11,13.1,11,20.5c0,0.7,0,119.5,0,119.5c0,17.5-18.2,32-40.5,32
	s-40.5-14.4-40.5-32v-76.1h-33.8v76.1c0,36.2,33.3,65.7,74.2,65.7s74.2-29.5,74.2-65.7V363.2c0,0,0.5-21.6-23.6-38.7
	c-13.3-10.8-30.4-16.9-48.8-17.6l0,0c-11.9,0-23.2-3.6-31.3-10.4c-7-5.6-11-13-11-20.5c0-0.7,0-85.1,0-85.1
	c0-17.6,18.2-31.9,40.5-31.9s40.5,14.4,40.5,31.9v66.8h33.8v-66.8C499.4,154.6,466.1,125.2,425.2,125.2z"/>
</svg>
