<?xml version="1.0" encoding="utf-8"?>
<!-- Generator: Adobe Illustrator 24.3.0, SVG Export Plug-In . SVG Version: 6.00 Build 0)  -->
<svg version="1.1" id="Layer_1" xmlns="http://www.w3.org/2000/svg" xmlns:xlink="http://www.w3.org/1999/xlink" x="0px" y="0px"
	 viewBox="0 0 850.4 850.4" style="enable-background:new 0 0 850.4 850.4;" xml:space="preserve">
<style type="text/css">
	.st0{fill:#1D1D1B;}
</style>
<g>
	<path class="st0" d="M570.4,559.7c-4,0-8.1,0.7-11.9,1.6v-58.5h-33.8v96.8c-0.2,0.9,1.1,14-13.3,14c-7.4,0-13.5-6.3-13.5-14v-39.1
		c0-35.3-29.5-64.1-66.4-64.1s-66.8,28.8-66.8,64.1v42.8c0,24.3,19.6,43.9,43.9,43.9c24.3,0,43.9-19.6,43.9-43.9v-12.4
		c0-24.3-19.6-43.9-43.9-43.9c-2.5,0-4.7,0.2-7,0.7c5.4-10.4,16.6-17.3,29.9-17.3c17.1,0,31.3,12.1,32.9,27.5h-0.2v41.8
		c0,26.3,21.1,47.7,47.2,47.7c8.5,0,16.6-2.5,23.6-6.5c8.5,10.1,21.2,16.6,35.3,16.6c4.3,0,8.3-0.7,12.4-1.8v9.5
		c0,7.9-5.6,14.4-12.4,14.4s-12.4-6.5-12.4-14.4h-33.8c0,26.5,20.7,48.1,46.1,48.1c25.4,0,46.1-21.6,46.1-48.1l-0.2-61.9
		C615,579.1,595,559.7,570.4,559.7z M407.8,580.6c5.6,0,10.1,4.5,10.1,10.1v12.4c0,5.6-4.5,10.1-10.1,10.1s-10.1-4.5-10.1-10.1
		v-12.4C397.6,585.1,402.1,580.6,407.8,580.6z M581.9,611c0,6.8-5.6,12.4-12.4,12.4s-12.4-5.6-12.4-12.4c0,0,0.2-7,0.2-7.9
		c1.3-5.6,6.3-9.7,12.1-9.7c6.8,0,12.4,5.6,12.4,12.4V611z"/>
	<path class="st0" d="M524.8,179.9l-0.7,245c0,18.2-14.2,32.9-31.7,32.9c-17.5,0-31.7-14.9-31.7-32.9V241.8
		c0.5-17.8-6.1-34.4-18.4-47.2c-12.4-12.6-28.8-19.6-46.4-19.6c-19.6,0-37.1,8.8-49.1,22.7c-0.4-0.5-15.8-20.7-47.5-20.7
		c-36.2,0-65.5,29.9-65.5,66.6v242.3h33.8V243.6c0-18.2,14.2-32.8,31.7-32.8c8.3,0,16.2,3.4,22.3,9.4c6.1,6.1,9.2,14.4,9,22.9v242.6
		h33.8V241.8c0-18.2,14.2-32.8,31.7-32.8c8.3,0,16.2,3.4,22.3,9.4c6.1,6.1,9.2,14.4,9,22.9l0.2,188.3c1.6,25,16.9,46.4,38.2,56.2
		c0,0,12.4,7.2,36.7,5c31.7-4.7,56-32.4,56-65.9v-245H524.8z"/>
</g>
</svg>
