<?xml version="1.0" encoding="utf-8"?>
<!-- Generator: Adobe Illustrator 24.3.0, SVG Export Plug-In . SVG Version: 6.00 Build 0)  -->
<svg version="1.1" id="Layer_1" xmlns="http://www.w3.org/2000/svg" xmlns:xlink="http://www.w3.org/1999/xlink" x="0px" y="0px"
	 viewBox="0 0 850.4 850.4" style="enable-background:new 0 0 850.4 850.4;" xml:space="preserve">
<style type="text/css">
	.st0{fill:#1D1D1B;}
</style>
<g>
	<path class="st0" d="M522.6,179.9v244.6c0,18.2-14.2,32.9-31.7,32.9s-31.7-14.9-31.7-32.9V238c-0.4-16.4-7-31.7-18.4-43.4
		c-12.4-12.6-28.8-19.6-46.4-19.6c-19.6,0-37.1,8.8-49.1,22.7c-0.4-0.4-0.7-0.9-1.1-1.3c-12.4-12.6-28.8-19.6-46.4-19.6
		c-36.2,0-65.5,29.9-65.5,66.6v242.3h33.8V243.4c0-18.2,14.2-32.8,31.7-32.8c8.3,0,16.2,3.4,22.3,9.4c6.1,6.1,9.2,14.4,9,22.9V485
		h33.8V241.6c0-18.2,14.2-32.8,31.7-32.8c8.3,0,16.2,3.4,22.3,9.4c5.9,6.1,9,14.2,9,22.7l0.2,188.6c0,27.4,13.7,41.4,31.3,52.4l0,0
		c0,0,0,0,0.2,0.2c0.2,0,0.2,0.2,0.4,0.2l0,0c2.7,1.8,14.4,9,34.9,9.7c35.3-0.9,63.9-30.4,63.9-66.6V179.9H522.6z"/>
	<path class="st0" d="M571.9,563.1c0,0-14,0.7-15.3,1.6v-62.1h-34.9v96.8c0,7.6-7.2,13.9-14.6,13.9s-13.5-6.3-13.5-13.9l0.5-38.9
		c0-35.3-29.9-64.1-66.8-64.1s-66.8,28.8-66.8,64.1v42.8c0,24.3,19.6,43.9,43.9,43.9s43.9-19.6,43.9-43.9v-12.4
		c0-24.3-19.6-43.9-43.9-43.9c-2.5,0-4.7,0.2-7,0.7c5.4-10.4,16.6-17.3,29.9-17.3c17.1,0,31.3,12.1,32.9,27.5h-0.2v41.8
		c0,26.3,21.1,47.7,47.2,47.7c4.5,0,8.8-0.7,12.8-1.8v18.9c0,25.4,20.7,46.1,46.1,46.1h5.9c25.4,0,46.1-20.7,46.1-46.1v-55.1
		C618,583.8,597.3,563.1,571.9,563.1z M403.6,580.2c5.6,0,10.1,4.5,10.1,10.1v12.4c0,5.6-4.5,10.1-10.1,10.1s-10.1-4.5-10.1-10.1
		v-11.9v-0.5C393.5,584.7,398,580.2,403.6,580.2z M583.6,663.7c0,6.8-5.6,12.4-12.4,12.4h-3.8c-6.8,0-12.1-3.6-12.1-13.5v-52.6
		c0-9,5.6-13.7,12.4-13.7h3.4c6.8,0,12.4,5.6,12.4,12.4v55.1H583.6z"/>
</g>
</svg>
