<?xml version="1.0" encoding="utf-8"?>
<!-- Generator: Adobe Illustrator 24.3.0, SVG Export Plug-In . SVG Version: 6.00 Build 0)  -->
<svg version="1.1" id="Layer_1" xmlns="http://www.w3.org/2000/svg" xmlns:xlink="http://www.w3.org/1999/xlink" x="0px" y="0px"
	 viewBox="0 0 850.4 850.4" style="enable-background:new 0 0 850.4 850.4;" xml:space="preserve">
<style type="text/css">
	.st0{fill:#1D1D1B;}
</style>
<path class="st0" d="M490.8,465.2L490.8,465.2l0-235.4c0-36.2-29.4-65.6-65.6-65.6c-36.2,0-65.6,29.4-65.6,65.6v192.4h0v68.9
	c0,27.1,16.6,50.4,40.2,60.4c-2,4.1-1.3,7.9-1.3,7.9v62.6c0,24.5,20.7,44.5,46.1,44.5c25.4,0,46.1-20,46.1-44.5v-59.6
	c0.1,0.1,0.1-20.1-13.9-30.3c9.4-11.7,14.3-26.1,13.9-41.1V465.2z M393.4,283.6v-53.7c0-17.5,14.3-31.8,31.8-31.8
	c17.5,0,31.8,14.3,31.8,31.8v38.2h0v223.3l0,0.5c0.2,8.1-2.8,15.7-8.5,21.6c-6,6.2-14.2,9.6-23,9.6c-17.7,0-32.2-14.3-32.2-31.8
	L393.4,283.6L393.4,283.6z M456.9,622.2c0,5.9-5.6,10.8-12.4,10.8s-12.4-4.7-12.4-10.8v-57.4c0-1.4,0.7-6.9,6.3-9.3
	c1.5-0.3,3-0.6,4.5-1c0.5,0,1.1-0.1,1.6-0.1c6.8,0,12.4,4.7,12.4,10.8V622.2z"/>
</svg>
