<?xml version="1.0" encoding="utf-8"?>
<!-- Generator: Adobe Illustrator 24.3.0, SVG Export Plug-In . SVG Version: 6.00 Build 0)  -->
<svg version="1.1" id="Layer_1" xmlns="http://www.w3.org/2000/svg" xmlns:xlink="http://www.w3.org/1999/xlink" x="0px" y="0px"
	 viewBox="0 0 850.4 850.4" style="enable-background:new 0 0 850.4 850.4;" xml:space="preserve">
<style type="text/css">
	.st0{fill:#1D1D1B;}
</style>
<g>
	<path class="st0" d="M587.1,177.6h-33.8v309.7c0,13.2-4.5,30.5-31.7,30.5c-26.6,0-31.1-19.5-31.1-30V177.6h-33.8v309.7
		c0,16.9-14.2,30.5-31.7,30.5c-25.4,0-31.3-22-31.1-30V236.4c0-34.8-29.5-62.9-65.5-62.9s-65.5,28.3-65.5,62.9v310.4h33.8V236.4
		c0-16.9,14.2-30.5,31.7-30.5s31.7,13.6,31.7,30.5v251c0,22.7,10.6,62.9,64.8,62.9c19.1,0,36.4-8,48.4-20.5
		c0.4,0.4,6.1,10.4,23.4,15.8c-2.9,8-2.5,17.9-2.5,17.9c0,24.4,20.7,44.3,46.1,44.3c4.3,0,8.3-0.6,12.4-1.7v7.1
		c0,6.3-5.6,11.5-12.4,11.5s-12.4-5.2-12.4-11.5h-33.8c0,24.2,20.7,43.9,46.1,43.9s46.1-19.7,46.1-43.9v-55.6l0,0
		c-0.5-11.9-5.8-22.5-14.4-30.3c9.5-10.8,15.1-24.9,15.1-40.2V177.6H587.1z M540.3,575.6c-6.8,0-12.4-5.4-12.4-11.9v-4.1
		c0-4.5,2.7-8.4,6.5-10.6c3.4-1.3,3.4-1.1,5.6-1.3c0,0,0,0,0.2,0c6.8,0,12.4,5.4,12.4,11.9v4.1C552.7,570.4,547,575.6,540.3,575.6z"
		/>
</g>
</svg>
