<?xml version="1.0" encoding="utf-8"?>
<!-- Generator: Adobe Illustrator 24.3.0, SVG Export Plug-In . SVG Version: 6.00 Build 0)  -->
<svg version="1.1" id="Layer_1" xmlns="http://www.w3.org/2000/svg" xmlns:xlink="http://www.w3.org/1999/xlink" x="0px" y="0px"
	 viewBox="0 0 850.4 850.4" style="enable-background:new 0 0 850.4 850.4;" xml:space="preserve">
<style type="text/css">
	.st0{fill:#1D1D1B;}
</style>
<path class="st0" d="M554.9,262.8c0-49.8-42.1-90.3-93.8-90.3c-12.8,0-25,2.4-36,6.9c-11-4.5-23.2-6.9-36-6.9
	c-50.4,0-91.6,38.3-93.6,86.4l0,0v289.5h33.8V262.8c0-31.8,27-57.8,60.1-57.8c0,0,0,0,0.2,0c-11.9,13.6-19.6,31-21.4,49.8
	l-0.4,235.5v0.2c0,32,25.9,58,57.6,58s57.6-26,57.6-58V262.8c0-21.9-8.1-42-21.8-57.8c0,0,0,0,0.2,0c33.1,0,60.1,26,60.1,57.8
	c0,0,0,321.7,0,322.4c0,18.6-11,35.1-27,43.3c1.4-4.5,2-9.3,2-14.3c0-28.4-24.1-51.5-54-52.4l0,0h-35.3c-30.8,0-56,23.6-56,52.6
	c0,29,25.2,52.6,56,52.6h63c46.8,0,84.8-36.6,84.6-81.6L554.9,262.8z M448.9,262.8v227.8c0,14.1-10.8,25.5-23.9,25.5
	c-13.1,0-23.9-11.5-23.9-25.5v-0.2V262.8c0-18.8,9.5-35.5,23.9-46.1C439.7,227.3,448.9,243.9,448.9,262.8z M406.9,634.3
	c-12.4,0-22.3-9.1-22.3-20.1c0-11,9.9-20.1,22.3-20.1h33.3c12.4,0,22.3,9.1,22.3,20.1c0,11-9.9,20.1-22.3,20.1H406.9z"/>
</svg>
