<?xml version="1.0" encoding="utf-8"?>
<!-- Generator: Adobe Illustrator 24.3.0, SVG Export Plug-In . SVG Version: 6.00 Build 0)  -->
<svg version="1.1" id="Layer_1" xmlns="http://www.w3.org/2000/svg" xmlns:xlink="http://www.w3.org/1999/xlink" x="0px" y="0px"
	 viewBox="0 0 850.4 850.4" style="enable-background:new 0 0 850.4 850.4;" xml:space="preserve">
<style type="text/css">
	.st0{fill:#1D1D1B;}
</style>
<g>
	<path class="st0" d="M512.8,570.1c-1.1-16.4-11-30.6-25-37.8v-61.2c0-18.2-6.8-34.2-18-45.2c11.2-11,18-26.8,18-45.2v-34
		c0-18.2-6.8-34.2-18-45.2c10.1-10.1,16.6-24.1,17.8-40.3h0.2v-24.7c-1.4-35.1-34.4-63.2-74.9-63.2c-41.9-0.2-75.6,29.2-75.6,65.2
		v309.4h33.8V238.5c0-17.1,19.1-31.7,41.9-31.7s41.2,14.2,41.2,31.7V256c0,12.2-0.2,27.7-28.8,27.7h-21.1v33.8c0,0,16.9,0,24.3,0
		c16.6,0,25.6,17.1,25.6,29.3v34c0,12.1-4.5,28.1-20.9,28.1c-5.4,0-29,0-29,0v34.4c0,0,13.3,0,25.6,0c15.3,0,24.3,16.2,24.3,28.4v58
		c-19.1,5.6-33.3,23.2-33.3,44.3v12.1c0,25.4,20.7,46.1,46.1,46.1c4.3,0,8.3-0.7,12.4-1.8v10.3c0,8.5-5.6,15.5-12.4,15.5
		s-12.4-7.2-12.4-15.5h-33.8c0,27.2,20.7,49.3,46.1,49.3s46.1-22,46.1-49.3L512.8,570.1L512.8,570.1z M466.7,597.8
		c-6.8,0-12.4-5.6-12.4-12.4v-12.1c0-6.8,5.6-12.4,12.4-12.4s12.4,5.6,12.4,12.4v12.1C479.1,592.4,473.7,597.8,466.7,597.8z"/>
</g>
</svg>
