<?xml version="1.0" encoding="utf-8"?>
<!-- Generator: Adobe Illustrator 24.3.0, SVG Export Plug-In . SVG Version: 6.00 Build 0)  -->
<svg version="1.1" id="Layer_1" xmlns="http://www.w3.org/2000/svg" xmlns:xlink="http://www.w3.org/1999/xlink" x="0px" y="0px"
	 viewBox="0 0 850.4 850.4" style="enable-background:new 0 0 850.4 850.4;" xml:space="preserve">
<style type="text/css">
	.st0{fill:#1D1D1B;}
</style>
<path class="st0" d="M575.4,178.9h-33.8v303.8c0,16.6-14.2,30-31.7,30c-8.5,0-16.6-3.2-22.5-8.9c-5.6-5.5-8.8-12.8-8.5-20.7V271.3
	l0,0v-92.4h-33.8v303.8c0,8.5-3.8,16.8-10.6,22.6c-7,6.2-16.6,9.4-27.9,9.4V403.2c0-17.7-6.1-32.8-16.4-43.5
	c10.4-10.7,16.4-25.8,16.4-43.5v-9.4v-17.7v-53.9c0-34.3-29.5-62-65.5-62c-36.4,0-66.1,27.9-66.1,62v21.1l0,0v291.1h33.8v-293l0,0
	v-19.2c0-16.6,14.6-30,32.4-30c17.6,0,31.7,13.4,31.7,30v53.7v17.7v9.4c0,12.6-5.6,27.5-21.4,27.5h-17.8v32h17.8
	c15.8,0,21.4,14.9,21.4,27.5v143.2h25.2c2.7,0.2,5.2,0.2,7.6,0.2c20,0,38.2-6.2,51.5-17.9c1.6-1.3,2.9-2.8,4.3-4.3
	c0.5,0.4,0.9,1.1,1.4,1.5c6.5,6.4,14.2,11.1,22.7,14.3c-1.4,3.4-2,6.8-2.5,10.4l0,0v0.6c-0.2,2.1-0.2,4,0,6v3.6v33.7v1.5v6.4
	c0,22.2,20.7,40.1,46.1,40.1c25.4,0,46.1-17.9,46.1-40.1V599v-4.9v-33.5v-8.1v-2.1h-0.2c-0.7-11.1-6.5-21.1-15.5-27.9
	c9.7-10.9,15.8-24.9,15.8-40.3V178.9z M541.6,594.5v4.9v3.2c0,3.8-5.2,8.1-12.4,8.1s-12.4-4.3-12.4-8.1v-6.4v-1.5V553
	c0.2-1.7,1.1-3.4,2.5-4.9c2-2.1,5.4-3.4,9.9-3.4c7.2,0,12.4,4.3,12.4,8.1v8.1V594.5z"/>
</svg>
