<?xml version="1.0" encoding="utf-8"?>
<!-- Generator: Adobe Illustrator 24.3.0, SVG Export Plug-In . SVG Version: 6.00 Build 0)  -->
<svg version="1.1" id="Layer_1" xmlns="http://www.w3.org/2000/svg" xmlns:xlink="http://www.w3.org/1999/xlink" x="0px" y="0px"
	 viewBox="0 0 850.4 850.4" style="enable-background:new 0 0 850.4 850.4;" xml:space="preserve">
<style type="text/css">
	.st0{fill:#1D1D1B;}
</style>
<path class="st0" d="M538.4,178.4h-33.8v322.4c0,17.6-14.2,31.7-31.7,31.7c-8.6,0-31.1-7.9-31.1-31.3V178.4h-33.8v322.4
	c0,17.6-14.2,31.7-31.7,31.7c-8.6,0-31.1-5.4-31.1-31.3V178.2h-33.8v322.4c-0.4,17.3,6.1,33.5,18,45.9c12.4,12.6,29,19.6,46.8,19.6
	c19.1,0,36.4-8.3,48.4-21.4c0.4,0.4,1.1,1.1,1.6,1.6c6.8,6.8,14.6,11.9,23.2,15.3c-3.4,5.2-2.9,12.1-2.9,12.1v54.7
	c0,23.4,20.7,42.3,46.1,42.3c25.4,0,46.1-18.9,46.1-42.3l-0.2-54.4c-0.7-12.2-6.8-22.7-16.2-30.2c10.1-11.5,16.4-26.8,16.4-43.2
	V178.4H538.4z M504.6,629.1c0,4-5.2,8.5-12.4,8.5s-12.4-4.5-12.4-8.5v-52.4c0-6.8,7.9-8.8,12.4-8.8c7.2,0,12.4,4.5,12.4,8.5V629.1z"
	/>
</svg>
