<?xml version="1.0" encoding="utf-8"?>
<!-- Generator: Adobe Illustrator 24.3.0, SVG Export Plug-In . SVG Version: 6.00 Build 0)  -->
<svg version="1.1" id="Layer_1" xmlns="http://www.w3.org/2000/svg" xmlns:xlink="http://www.w3.org/1999/xlink" x="0px" y="0px"
	 viewBox="0 0 850.4 850.4" style="enable-background:new 0 0 850.4 850.4;" xml:space="preserve">
<style type="text/css">
	.st0{fill:#1D1D1B;}
</style>
<path class="st0" d="M539,177.7h-33v290.4h-51.9V240.9h-0.2c-2-37.4-33.2-67.1-71.3-67.1c-38.7,0-70.2,30.8-71.3,69.1l0,0v258.3h33
	V244.9c0-20.9,17.2-38.1,38.3-38.1c21.1,0,38.3,16.9,38.3,38.1l0.2,256.2h9.7v3.7c0,36.3-29.5,65.8-65.8,65.8v33h83.8
	c-1.1,3.7-1.8,7.9-1.8,12.1v51.7c0,24.9,20.2,45.1,45.1,45.1s45.1-20.2,45.1-45.1v-51.7c0-4.2-0.7-8.4-1.8-12.3h3.3V177.7H539z
	 M464,504.9v-3.7h42v69.5h-67.3C454.6,553.1,464,530.2,464,504.9z M504.5,667.5c0,6.6-5.5,12.1-12.1,12.1s-12.1-5.5-12.1-12.1v-51.7
	c0-6.6,5.5-12.1,12.1-12.1s12.1,5.5,12.1,12.1V667.5z"/>
</svg>
