<?xml version="1.0" encoding="utf-8"?>
<!-- Generator: Adobe Illustrator 24.3.0, SVG Export Plug-In . SVG Version: 6.00 Build 0)  -->
<svg version="1.1" id="Layer_1" xmlns="http://www.w3.org/2000/svg" xmlns:xlink="http://www.w3.org/1999/xlink" x="0px" y="0px"
	 viewBox="0 0 850.4 850.4" style="enable-background:new 0 0 850.4 850.4;" xml:space="preserve">
<style type="text/css">
	.st0{fill:#1D1D1B;}
</style>
<path class="st0" d="M456.9,148.3v244.8c0,17.5-14.2,31.7-31.7,31.7c-17.5,0-31.7-14.2-31.7-31.7V147.9h-33.8v245.2
	c0,36.2,29.5,65.5,65.5,65.5c11.5,0,22.5-2.9,31.7-8.3v108c0,17.5-14.2,31.7-31.7,31.7v33.8c36.2,0,65.5-29.5,65.5-65.5v-410v-0.4
	h-33.8V148.3z"/>
</svg>
