<?xml version="1.0" encoding="utf-8"?>
<!-- Generator: Adobe Illustrator 24.3.0, SVG Export Plug-In . SVG Version: 6.00 Build 0)  -->
<svg version="1.1" id="Layer_1" xmlns="http://www.w3.org/2000/svg" xmlns:xlink="http://www.w3.org/1999/xlink" x="0px" y="0px"
	 viewBox="0 0 850.4 850.4" style="enable-background:new 0 0 850.4 850.4;" xml:space="preserve">
<style type="text/css">
	.st0{fill:#1D1D1B;}
</style>
<g>
	<path class="st0" d="M513.8,521.4c-17.1,0-32.6,6.1-44.8,15.8c-7.9-9.7-20-15.8-33.5-15.8c-23.2,0-41.9,17.8-42.8,40l0,0v8.3h-0.2
		h-10.8c-23.4,0-40.3,18.9-40.3,45l-0.2,21.1c0,23.6,19.1,42.8,42.8,42.8c9.7,0,18.7-3.4,25.9-8.8c7.2,5.4,16.2,8.8,25.9,8.8
		s18.7-3.4,25.9-8.8c7.2,5.4,16.2,8.8,25.9,8.8c21.8,0,39.8-16.4,42.5-37.6h0.2v-27.2c0-25.7-16.7-44.1-39.6-44.1h-6.3
		c6.3-8.8,17.3-14.8,29.5-14.8c19.6,0,35.5,14.8,35.5,33.1v90.2h33.8V588C583.1,551.3,552.1,521.4,513.8,521.4z M426.8,563
		c0-4.3,4.1-7.9,9-7.9s9,3.6,9,7.9v7h-18V563z M384,645.1c-4.3,0-7.6-2.9-8.8-7v-23.4c0-1.8,0.2-11.2,6.5-11.2h10.8h0.2v32.4
		C393,641.1,389,645.1,384,645.1z M435.8,645.1c-4.9,0-9-4.1-9-9v-32.4h18v1.1v31.3C444.8,641.1,440.7,645.1,435.8,645.1z
		 M496.5,613.9v22.1c0,4.9-4.1,9-9,9s-9-4.1-9-9v-31.3v-1.1h12.1C496.1,603.5,496.5,612.3,496.5,613.9z"/>
	<path class="st0" d="M549.4,180.5v228.1c0,42.5-34.7,77.2-77.2,77.2c-4.5,0-9-0.4-13.3-1.1c18.7-19.8,30.1-46.6,30.1-76.1V237.4
		c0-35.3-28.6-63.9-63.9-63.9c-18.7,0-35.3,7.9-47,20.7c-11.7-12.6-28.4-20.7-47-20.7c-35.3,0-63.9,28.6-63.9,63.9v171.2
		c0,61.2,49.7,110.9,110.9,110.9c16.9,0,32.6-3.8,47-10.6c14.2,6.8,30.1,10.6,47,10.6c61.2,0,110.9-49.7,110.9-110.9V180.5H549.4z
		 M425.2,207.3c16.6,0,30.1,13.5,30.1,30.1v171.2c0,25-11.9,47-30.1,61.2C407,455.7,395,433.6,395,408.7V237.4
		C395,220.8,408.5,207.3,425.2,207.3z M301,408.9V237.4c0-16.7,13.5-30.2,30.1-30.2s30.1,13.5,30.1,30.2v171.4
		c0,29.5,11.5,56,30.1,76.1c-4.3,0.7-8.8,1.1-13.3,1.1C335.6,486.1,301,451.4,301,408.9z"/>
</g>
</svg>
