<?xml version="1.0" encoding="utf-8"?>
<!-- Generator: Adobe Illustrator 24.3.0, SVG Export Plug-In . SVG Version: 6.00 Build 0)  -->
<svg version="1.1" id="Layer_1" xmlns="http://www.w3.org/2000/svg" xmlns:xlink="http://www.w3.org/1999/xlink" x="0px" y="0px"
	 viewBox="0 0 850.4 850.4" style="enable-background:new 0 0 850.4 850.4;" xml:space="preserve">
<style type="text/css">
	.st0{fill:#1D1D1B;}
</style>
<g>
	<path class="st0" d="M392.1,536c29.9,0,54.5-22.5,54.5-50.2v-49.1c38.2-9.4,66.8-44.1,66.8-85.3V219.7h-0.2
		c0-27.7-22.5-50.2-50.2-50.2c-27.7,0-50.2,22.5-50.2,50.2v184.3c-23.6-5.9-41.4-27.2-41.4-52.6V179.4h-33.8v171.9
		c0,44.1,32.6,80.8,75.2,86.9v47.5c0,9-9.5,16.4-20.7,16.4s-20.7-7.4-20.7-16.4v-46.8h-33.8v46.8C337.7,513.5,362,536,392.1,536z
		 M446.6,219.7c0-9,7.4-16.4,16.4-16.4s16.4,7.4,16.4,16.4l0.2,131.6c0,22.3-13.7,41.6-33.1,49.7L446.6,219.7z"/>
	<path class="st0" d="M494.9,557.8v94.7c0,3.8-5,8.3-12.1,8.3s-12.1-4.3-12.1-8.3v-63.2l0,0c0-10.1-3.8-20-11.2-27.5
		c-8.5-8.8-20.9-14-34.2-14c-10.8,0-20.9,3.6-28.8,9.5c-8.1-6.1-18.2-9.5-28.8-9.5c-25.2,0-45.9,18.9-45.9,42.1v96.8h33.8V590
		c0-3.8,4.9-8.3,12.1-8.3c3.8,0,7.6,1.4,9.9,3.6c1.1,1.3,1.8,2.7,1.8,4v97.4l0,0H413l0,0V590c0-3.8,4.9-8.3,12.2-8.3
		c3.8,0,7.6,1.4,9.9,3.6c1.1,1.3,1.8,2.7,1.8,4h3.1h-3.1v63.2c0,23.2,20.5,42.1,45.9,42.1c25.4,0,45.9-18.9,45.9-42.1v-94.7
		L494.9,557.8L494.9,557.8z"/>
</g>
</svg>
